"traffic","D","H","C","JS"
"Abilene","4",0.998341096122498,0.00216411171791198,"0.0013129291370142"
"Abilene","4",0.95635715104581,0.0539013147686555,"0.0341365642079012"
"Abilene","4",0.996079604113669,0.0050261513242541,"0.00305620211012614"
"Abilene","4",0.979107314717803,0.0265855954302476,"0.0164458625130917"
"Abilene","4",0.989456621367689,0.013261937307116,"0.00811803221224716"
"Abilene","4",0.878737375524078,0.140450481818485,"0.0968065389688899"
"Abilene","4",0.995111814127547,0.00632941205339663,"0.00385240596197578"
"Abilene","4",0.98578672748085,0.0179512663084737,"0.0110294201792869"
"Abilene","4",0.901258800930458,0.117961604597405,"0.0792741714535747"
"Abilene","4",0.933483717994019,0.0805318494341402,"0.0522518274972981"
"Abilene","4",0.958198184671812,0.0512954355457619,"0.0324238018614855"
"Abilene","4",0.982388045682261,0.0225913503689819,"0.0139283503013414"
"Abilene","4",0.982013785794257,0.023276431961348,"0.0143561961143073"
"Abilene","4",0.978347187858786,0.0272447508073155,"0.0168667107735498"
"Abilene","4",0.973933932509164,0.0328279885436989,"0.0204152797210522"
"Abilene","4",0.960448988352373,0.049140330992023,"0.0309887695823556"
"Abilene","4",0.978452591433184,0.0268433172531175,"0.0166164006495635"
"Abilene","4",0.973472672575105,0.0325659263461446,"0.0202619029411744"
"Abilene","4",0.976688466419717,0.0294757490944358,"0.0182788702734675"
"Abilene","4",0.99304130532175,0.00886546019795737,"0.00540722610253375"
"Abilene","4",0.960608660952372,0.0475078421064017,"0.0299543131201951"
"Abilene","4",0.971237298048118,0.0369817845694164,"0.0230623241007955"
"Abilene","4",0.990573779141178,0.0120432942594559,"0.00736374988170674"
"Abilene","4",0.984126828552196,0.0199566588139738,"0.0122822326625471"
"Abilene","4",0.98079576109215,0.0240751421234106,"0.014867256636155"
"Abilene","4",0.98984445223741,0.0131229930023442,"0.00802983280719216"
"Abilene","4",0.972033521550005,0.0345865453507663,"0.0215509540829188"
"Abilene","4",0.980131693823428,0.0248764041405862,"0.015372472671622"
"Abilene","4",0.985833277357146,0.0187003014703579,"0.0114890916221395"
"Abilene","4",0.968382401169494,0.038392068244327,"0.0240123784514705"
"Abilene","4",0.986032817612053,0.0183703085690995,"0.0112840665942564"
"Abilene","4",0.971494530545205,0.035219503059717,"0.0219575268657601"
"Abilene","4",0.97897131612051,0.0259497229856151,"0.0160547415168972"
"Abilene","4",0.98607494303135,0.017974929470018,"0.0110407310488079"
"Abilene","4",0.976739784815024,0.0283254844961483,"0.0175646308978794"
"Abilene","4",0.966945529759449,0.042455166661102,"0.0265931080977049"
"Abilene","4",0.978228920775324,0.0275542045362864,"0.0170603500670279"
"Abilene","4",0.992333650389333,0.00981083740787171,"0.00598809826433766"
"Abilene","4",0.98478495620849,0.0187129956394254,"0.0115091293111569"
"Abilene","4",0.958744864950775,0.0507508012773464,"0.0320612471108783"
"Abilene","4",0.978207171645221,0.0271771397059593,"0.016827262251969"
"Abilene","4",0.997827069782274,0.00289807692050821,"0.00175911886273639"
"Abilene","4",0.984003526700768,0.0200175325071375,"0.0123212408291025"
"Abilene","4",0.974030188589456,0.0327117377059479,"0.02034097456144"
"Abilene","4",0.964546552459375,0.0433632459895059,"0.027229467599325"
"Abilene","4",0.952058573683973,0.0567150257582602,"0.0360807057671619"
"Abilene","4",0.984983979311352,0.018509010618434,"0.0113813714267879"
"Abilene","4",0.975844867067726,0.0296082931482491,"0.0183769379423246"
"Abilene","4",0.963844040080726,0.0436174765619695,"0.0274090718255018"
"Abilene","4",0.965446317798313,0.0424606829994815,"0.0266378644142422"
"Abilene","4",0.940273054738918,0.0695693639572938,"0.0448130600735186"
"Abilene","4",0.95859658523375,0.0495945941854432,"0.0313356726855547"
"Abilene","4",0.989844238690697,0.0127290730615091,"0.00778879867628102"
"Abilene","4",0.95339209488648,0.0553916792406738,"0.035189536253841"
"Abilene","4",0.956374968453436,0.0526888807889997,"0.0333680887248711"
"Abilene","4",0.987937225051048,0.015241182951356,"0.0093439366496002"
"Abilene","4",0.978464423253623,0.0290378105335558,"0.0179746062944517"
"Abilene","4",0.98483872572161,0.0187637078203816,"0.0115396889586949"
"Abilene","4",0.988150464204831,0.0147177619968825,"0.00902109498105563"
"Abilene","4",0.973068725954915,0.0334675595306217,"0.0208315261720557"
"Abilene","4",0.980104153161576,0.0257809589113839,"0.0159318935516839"
"Abilene","4",0.975493517290091,0.030519727656205,"0.0189494594163739"
"Abilene","4",0.963477882888284,0.0445748715955635,"0.0280213406615566"
"Abilene","4",0.977999618477963,0.0271302986325857,"0.016801824639755"
"Abilene","4",0.970481672017736,0.0362571123628791,"0.0226280137176387"
"Abilene","4",0.983827833735881,0.0200502860893768,"0.012343605334463"
"Abilene","4",0.986922249995359,0.0167416315857532,"0.0102743746808196"
"Abilene","4",0.98207267361371,0.0230281414309804,"0.0142022064030289"
"Abilene","4",0.984307218128012,0.0194709465690443,"0.0119811071986469"
"Abilene","4",0.972362147725323,0.0345942631168199,"0.0215484779068746"
"Abilene","4",0.966025165010097,0.0409138982239843,"0.0256521032541943"
"Abilene","4",0.976200592206883,0.029282085437613,"0.018167848324933"
"Abilene","4",0.976704537946566,0.0285059689941487,"0.0176771872253625"
"Abilene","4",0.986620777795691,0.0171304224502628,"0.0105161888047873"
"Abilene","4",0.986198247223826,0.0181282973221105,"0.0111335419014613"
"Abilene","4",0.975305235194286,0.0308339220518035,"0.0191482360932613"
"Abilene","4",0.977277005317285,0.0287442555131767,"0.017814512545083"
"Abilene","4",0.950203913205727,0.0598549767915411,"0.0381525887202394"
"Abilene","4",0.969061278241798,0.0382688096246451,"0.0239185182629835"
"Abilene","4",0.973870892081826,0.0322410290019089,"0.0200515554522607"
"Abilene","4",0.964047385563157,0.0434239401847605,"0.0272816985201187"
"Abilene","4",0.949159127376077,0.0639486636960935,"0.0408068436575273"
"Abilene","4",0.960438975395227,0.0484599258885078,"0.0305600125798751"
"Abilene","4",0.955662430058647,0.0543745538485087,"0.0344613076096094"
"Abilene","4",0.970154614190278,0.0364473012748552,"0.0227543787094324"
"Abilene","4",0.963903659220705,0.04465285015591,"0.0280579614789989"
"Abilene","4",0.949458734739882,0.0612816482016078,"0.0390926311606745"
"Abilene","4",0.954535490639203,0.056088274368063,"0.0355893910272922"
"Abilene","4",0.964651117834743,0.0438294629731248,"0.0275192400352986"
"Abilene","4",0.97418198680312,0.0319989978309839,"0.0198946746311994"
"Abilene","4",0.961869161053359,0.0466058187720376,"0.0293470667635929"
"Abilene","4",0.982542273696435,0.0219219856212401,"0.0135135422095281"
"Abilene","4",0.986533256657241,0.016812141512304,"0.0103217150541117"
"Abilene","4",0.995289191751564,0.00611843298673924,"0.00372332956299393"
"Abilene","4",0.972190444673161,0.0335674060600294,"0.0209125500223426"
"Abilene","4",0.984724036154171,0.0194130491326753,"0.0119404246893329"
"Abilene","4",0.994129383123995,0.00772120997269226,"0.00470417003833701"
"Abilene","4",0.990510244903513,0.0119173325850859,"0.00728719928842825"
"Abilene","4",0.985962056081931,0.0175917599038412,"0.0108066141699117"
"Abilene","4",0.967859338574329,0.0390584600587948,"0.0244423765608395"
"Abilene","4",0.957468915632705,0.0510679074092356,"0.0323045679976768"
"Abilene","4",0.963633154465726,0.044209307206753,"0.0277870558693794"
"Abilene","4",0.979432353529417,0.0257192141637076,"0.0159046386951762"
"Abilene","4",0.961511961203788,0.0460141157368689,"0.0289852431632016"
"Abilene","4",0.960148653368806,0.0487366723560684,"0.0307438289216948"
"Abilene","4",0.968602939616302,0.0384686219708636,"0.0240547808861908"
"Abilene","4",0.971967884998878,0.0350012649168932,"0.0218108395526166"
"Abilene","4",0.986341062645584,0.0172293794726137,"0.0105799369948678"
"Abilene","4",0.981450038957531,0.0236639306363019,"0.0146035770330446"
"Abilene","4",0.963735932972153,0.0439957228808493,"0.0276498617838621"
"Abilene","4",0.986669836850726,0.0176521690906809,"0.0108359448499524"
"Abilene","4",0.989989081300821,0.0128086165564195,"0.0078363239048731"
"Abilene","4",0.964234827701512,0.0451419219526837,"0.0283555313873336"
"Abilene","4",0.972110434575197,0.0342611848822831,"0.0213465321807826"
"Abilene","4",0.967471540771748,0.040566378133755,"0.0253961915895651"
"Abilene","4",0.972512068832004,0.0338719411626892,"0.0210952970642915"
"Abilene","4",0.96034012235985,0.0502564061644916,"0.0316961792335353"
"Abilene","4",0.91006375441588,0.111527750053601,"0.0742252521953637"
"Abilene","4",0.974092347730314,0.033003859640658,"0.0205213136707545"
"Abilene","4",0.983927746054531,0.0207481479289429,"0.0127719346295976"
"Abilene","4",0.980197503718061,0.0257347863022961,"0.0159018456228954"
"LogNormal","4",0.99818364762709,0.00239259036007435,"0.00145177213536485"
"LogNormal","4",0.998890187651944,0.00146397566648189,"0.000887680480216035"
"LogNormal","4",0.998175240541288,0.00239709133709672,"0.00145451548146003"
"LogNormal","4",0.998334419200919,0.00216442240137689,"0.00131312640550796"
"LogNormal","4",0.997854573038343,0.00281508462996836,"0.00170869584133393"
"LogNormal","4",0.997668972759455,0.00303197863777758,"0.00184068820725547"
"LogNormal","4",0.998517576256391,0.0019568171230326,"0.00118695727034202"
"LogNormal","4",0.998611741447193,0.0018004544202674,"0.0010920085082311"
"LogNormal","4",0.998263294397871,0.0022840276054489,"0.00138578802711886"
"LogNormal","4",0.998090516536991,0.00252444913030266,"0.00153192411752667"
"LogNormal","4",0.998940896530707,0.00138852059117779,"0.000841885616851501"
"LogNormal","4",0.998742206013411,0.00164983167950939,"0.0010005223492322"
"LogNormal","4",0.998302989737894,0.00224408340088391,"0.00136149854144518"
"LogNormal","4",0.999076617180472,0.00120846717895933,"0.000732616379087725"
"LogNormal","4",0.998076534394045,0.00248828980992996,"0.0015100025293886"
"LogNormal","4",0.998247816295907,0.00228449941712623,"0.00138609578086535"
"LogNormal","4",0.999052156869473,0.0012346988514208,"0.000748537291179074"
"LogNormal","4",0.9982492256566,0.0023195230540147,"0.00140734401398013"
"LogNormal","4",0.998796180013288,0.00159155416926116,"0.000965128434088136"
"LogNormal","4",0.99803758588834,0.00254615668743653,"0.00154517896700934"
"LogNormal","4",0.997719252830315,0.0030038668202313,"0.00182352986267387"
"LogNormal","4",0.99853223005813,0.00193465261307701,"0.00117349560054869"
"LogNormal","4",0.99924122208377,0.00099488761553826,"0.000603037391784245"
"LogNormal","4",0.998480330137364,0.00199755741222973,"0.00121171452916502"
"LogNormal","4",0.997037675508718,0.00387868459980056,"0.00235620707192208"
"LogNormal","4",0.999336711227635,0.000864563648329022,"0.000523993244777143"
"LogNormal","4",0.998122130064365,0.00248918746099194,"0.00151047825911688"
"LogNormal","4",0.998275881681679,0.00227320435011364,"0.00137920384297541"
"LogNormal","4",0.998174167170671,0.00239275146784596,"0.00145188368164639"
"LogNormal","4",0.997278145378912,0.00360083171327659,"0.00218689072062328"
"LogNormal","4",0.998950959512724,0.00137235701355426,"0.000832076959883965"
"LogNormal","4",0.998831830972484,0.00152287211922802,"0.000923446246593906"
"LogNormal","4",0.998161895846537,0.00242035506900171,"0.00146865116475636"
"LogNormal","4",0.998110213843827,0.00245441226129778,"0.00148939390013014"
"LogNormal","4",0.999076664012286,0.00121229733921421,"0.000734938325892776"
"LogNormal","4",0.998394788040849,0.00211460935711624,"0.00128282791923851"
"LogNormal","4",0.99920233446198,0.00105181431279473,"0.000637567535653805"
"LogNormal","4",0.998131589109883,0.00243990002868547,"0.00148055583588169"
"LogNormal","4",0.998414019276224,0.00208992569713108,"0.00126782915400359"
"LogNormal","4",0.998402174920195,0.00211852346631772,"0.0012851929050397"
"LogNormal","4",0.998159532540296,0.00242309188792582,"0.00147031532473951"
"LogNormal","4",0.999099296994859,0.00117379560464335,"0.00071158106709901"
"LogNormal","4",0.997714066778,0.00300480522517675,"0.0018241090131017"
"LogNormal","4",0.998999703315682,0.00131081667056545,"0.000794725513347139"
"LogNormal","4",0.998751830128132,0.00163329301624217,"0.000990483113535667"
"LogNormal","4",0.998581765752803,0.00184327932004653,"0.00111801615244955"
"LogNormal","4",0.998071851177115,0.0025168349765304,"0.00152733214517742"
"LogNormal","4",0.998422261562565,0.00205327362608696,"0.00124558431797173"
"LogNormal","4",0.999137050896453,0.00115164122722112,"0.000698124208866169"
"LogNormal","4",0.998680166072246,0.0017205260948908,"0.00104345902069358"
"LogNormal","4",0.997982422426773,0.0026649652464166,"0.00161736937906687"
"LogNormal","4",0.998698246691816,0.0017030976598656,"0.00103287038098832"
"LogNormal","4",0.99912090596756,0.00115469328609882,"0.000699985676074322"
"LogNormal","4",0.997910899427576,0.00278688856568103,"0.00169148595643231"
"LogNormal","4",0.999146756667148,0.00112065866548874,"0.000679335999684616"
"LogNormal","4",0.998565184176658,0.00188995604343174,"0.00114634632322574"
"LogNormal","4",0.997765944144313,0.00291778241316411,"0.00177118850354674"
"LogNormal","4",0.998293427605891,0.00223405753771379,"0.00135542877436579"
"LogNormal","4",0.998498457320261,0.00196159738997992,"0.00118987964602968"
"LogNormal","4",0.998619708710012,0.00179458840398177,"0.00108844197819669"
"LogNormal","4",0.998162044631652,0.00238151172360708,"0.00144508113301267"
"LogNormal","4",0.998295678683624,0.00225212986629198,"0.00136639038586694"
"LogNormal","4",0.996837686803861,0.00409527200281736,"0.00248827778613436"
"LogNormal","4",0.998798077549376,0.00157299510982463,"0.000953872291812541"
"LogNormal","4",0.998618390265346,0.00181025969391985,"0.00109794827568055"
"LogNormal","4",0.998827457106755,0.00153347470141823,"0.000929879561397673"
"LogNormal","4",0.99707010057542,0.00381071450859157,"0.00231484160375506"
"LogNormal","4",0.998304554584461,0.00220005738277762,"0.0013347856061432"
"LogNormal","4",0.999294829964912,0.000927312635439307,"0.000562047597542081"
"LogNormal","4",0.997861047523634,0.0028323454757421,"0.00171916164896313"
"LogNormal","4",0.998498384731165,0.00196064240545895,"0.00118930045121135"
"LogNormal","4",0.998652301940102,0.00178029868956712,"0.00107973983356335"
"LogNormal","4",0.998664409820214,0.00175304492525537,"0.00106319770838348"
"LogNormal","4",0.99944203043176,0.000734319090249495,"0.000445007948671972"
"LogNormal","4",0.998819339281532,0.00153885267933279,"0.000933148282853402"
"LogNormal","4",0.99872804345782,0.00167127080382323,"0.00101353824369022"
"LogNormal","4",0.99896535882085,0.00137411426283986,"0.000833130392669634"
"LogNormal","4",0.999194890909759,0.00105916629032582,"0.000642028791548954"
"LogNormal","4",0.998929359499529,0.00141292521492372,"0.000856692484031862"
"LogNormal","4",0.998770543449539,0.00161285060670745,"0.000978067831894913"
"LogNormal","4",0.997955165449671,0.00269412047939556,"0.0016351083697379"
"LogNormal","4",0.998755365919693,0.00162158754500379,"0.000983381045756682"
"LogNormal","4",0.998453770516434,0.00203221508360904,"0.00123277059849647"
"LogNormal","4",0.998543418850071,0.00191483540325285,"0.00116146212908919"
"LogNormal","4",0.998643302926132,0.00176761930214984,"0.00107205952622635"
"LogNormal","4",0.99882513971695,0.00154946580614574,"0.000939578543909469"
"LogNormal","4",0.999029399792345,0.00126620376282589,"0.00076765465825579"
"LogNormal","4",0.998542375508907,0.00191071856137076,"0.0011589662293694"
"LogNormal","4",0.998279502428366,0.00226607415482581,"0.00137487280760351"
"LogNormal","4",0.997390675567824,0.00342761771719896,"0.00208145791389391"
"LogNormal","4",0.998250512314054,0.00230630737630689,"0.00139932374947316"
"LogNormal","4",0.998013315702546,0.00267559563161554,"0.0016237707026967"
"LogNormal","4",0.997715279236148,0.00301535043765602,"0.00183050840723831"
"LogNormal","4",0.999093407514807,0.00119652317907981,"0.000725363305332349"
"LogNormal","4",0.998329239194041,0.00221389179378283,"0.00134314579982475"
"LogNormal","4",0.998938232350925,0.00140024337803847,"0.00084899562278351"
"LogNormal","4",0.99864962952901,0.00177921614548886,"0.00107908616511776"
"LogNormal","4",0.99813570319593,0.0024379896599907,"0.00147939050724322"
"LogNormal","4",0.998039770495143,0.00254966620524721,"0.00154730539133863"
"LogNormal","4",0.998352750111341,0.00216587417721916,"0.00131398305199371"
"LogNormal","4",0.998756544492374,0.00162420417443344,"0.000984966688800881"
"LogNormal","4",0.999137566326827,0.00113623624774088,"0.000688785364382438"
"LogNormal","4",0.997730102911477,0.00294383288657686,"0.00178706617939217"
"LogNormal","4",0.998192406051188,0.00237261633033273,"0.00143963969376437"
"LogNormal","4",0.99892249348835,0.00141273512636849,"0.000856583116120246"
"LogNormal","4",0.998410413006638,0.00207381268696133,"0.00125805892760988"
"LogNormal","4",0.998315027353318,0.00221757892864604,"0.00134540189995791"
"LogNormal","4",0.998991185785841,0.00132178505837081,"0.000801382290113395"
"LogNormal","4",0.998248397191581,0.0022756176417629,"0.00138070605445284"
"LogNormal","4",0.9981401539552,0.00246004470192591,"0.00149276701662049"
"LogNormal","4",0.998683187031202,0.00174403822193865,"0.00105771537882071"
"LogNormal","4",0.997865256888012,0.00276468595421562,"0.00167808696183269"
"LogNormal","4",0.998828207198409,0.00152873683746516,"0.000927005884781007"
"LogNormal","4",0.998765055966147,0.00160506612916009,"0.000973352502531055"
"LogNormal","4",0.998165981253254,0.00241352846440109,"0.00146450284420818"
"LogNormal","4",0.997450770056396,0.00338489833764315,"0.00205539226794182"
"LogNormal","4",0.998780852914174,0.00161695417481365,"0.000980546203864563"
"LogNormal","4",0.998572845580245,0.00189404238300051,"0.0011488160642148"
"LogNormal","4",0.999302783118769,0.00091529285751861,"0.00055475795076565"
"LogNormal","4",0.998099933474284,0.00249427516679365,"0.00151359921928984"
"LogNormal","4",0.999222729007051,0.00102146034176696,"0.00061915554168479"
"LogLogistic","4",0.998601251607792,0.0018415389322838,"0.00111693874836272"
"LogLogistic","4",0.998261016254047,0.002263429507899,"0.00137329367777395"
"LogLogistic","4",0.998653434994805,0.00176401386713677,"0.00106986197847325"
"LogLogistic","4",0.99891489981748,0.00142686288719311,"0.000865155772405091"
"LogLogistic","4",0.997863754499666,0.00279285890243255,"0.00169518970482763"
"LogLogistic","4",0.998969831947401,0.00135065703222292,"0.000818904522984276"
"LogLogistic","4",0.997120190424624,0.00380156011096349,"0.00230916470388554"
"LogLogistic","4",0.998775045596563,0.00160871374034733,"0.000975554748289253"
"LogLogistic","4",0.998582237442111,0.00186899124092026,"0.00113361083498686"
"LogLogistic","4",0.99896235034694,0.00136247427685094,"0.000826075515329761"
"LogLogistic","4",0.999104048597298,0.00117421718128806,"0.000711833250862881"
"LogLogistic","4",0.998698827249948,0.00169979849786495,"0.00103086895300786"
"LogLogistic","4",0.998644067591528,0.00178306933680099,"0.00108142913037268"
"LogLogistic","4",0.99860671235872,0.00180898207568517,"0.00109718621259769"
"LogLogistic","4",0.998532011390002,0.00192848126133572,"0.00116975252105145"
"LogLogistic","4",0.998254690299794,0.00227056364122451,"0.00137763091024512"
"LogLogistic","4",0.998753185910279,0.00163961712064376,"0.000994316910655435"
"LogLogistic","4",0.99863769790203,0.00178652164619438,"0.00108352986244942"
"LogLogistic","4",0.999015125082297,0.00129665879141226,"0.000786129700034222"
"LogLogistic","4",0.997849933688067,0.00280817872673865,"0.00170451203139255"
"LogLogistic","4",0.99934871380677,0.000859242691997639,"0.000520762074104786"
"LogLogistic","4",0.99861384260057,0.00181293205790237,"0.00109957410989314"
"LogLogistic","4",0.999072621142239,0.00121884532117503,"0.000738910938561821"
"LogLogistic","4",0.997378936403944,0.00343846800316171,"0.00208807144368506"
"LogLogistic","4",0.998645422257699,0.00176453115128718,"0.00107018429433281"
"LogLogistic","4",0.998403820630713,0.00209698764955305,"0.00127212620000372"
"LogLogistic","4",0.998287046265356,0.00225273772011087,"0.00136677099572124"
"LogLogistic","4",0.997368913477855,0.00348922147043431,"0.00211891369165529"
"LogLogistic","4",0.997913778862576,0.00275978703631125,"0.00167503200610186"
"LogLogistic","4",0.997936404076631,0.00268697623772045,"0.00163080306455399"
"LogLogistic","4",0.998241435658668,0.00233106211931569,"0.00141435624668351"
"LogLogistic","4",0.998978401583086,0.00134800279682274,"0.000817288246687919"
"LogLogistic","4",0.997406208313855,0.00340669099644093,"0.00206871771954864"
"LogLogistic","4",0.998019533454387,0.00260919875423622,"0.00158346577087487"
"LogLogistic","4",0.996985577782337,0.00402357754428093,"0.00244435375447472"
"LogLogistic","4",0.998749310779798,0.00163715457652472,"0.00099282739630624"
"LogLogistic","4",0.998206834528301,0.00236097303578022,"0.00143255414918375"
"LogLogistic","4",0.998882205166412,0.00147485477739465,"0.000894284167001214"
"LogLogistic","4",0.998873683295893,0.00147823698930937,"0.000896342631956371"
"LogLogistic","4",0.998567259338904,0.00187556528088596,"0.00113761529168199"
"LogLogistic","4",0.998644811605847,0.00176727877163512,"0.00107185137549637"
"LogLogistic","4",0.997834770440972,0.00286591200455836,"0.00173958148713282"
"LogLogistic","4",0.998855679861914,0.00150510084588631,"0.000912648228481139"
"LogLogistic","4",0.998354944329926,0.00213640466118726,"0.00129610176656048"
"LogLogistic","4",0.999055671907824,0.001249986911246,"0.00075780302498929"
"LogLogistic","4",0.99851785268058,0.00193814354088832,"0.00117563000798082"
"LogLogistic","4",0.998304285748575,0.00222690482827917,"0.00135107444685878"
"LogLogistic","4",0.998145977873381,0.00245301808546631,"0.00148849454676392"
"LogLogistic","4",0.998095345612903,0.00250443796881957,"0.00151977329097264"
"LogLogistic","4",0.998727897562537,0.00168841601766253,"0.00102393606782947"
"LogLogistic","4",0.998202583203044,0.00233109601709529,"0.00141443186489498"
"LogLogistic","4",0.998876565132249,0.00147846545858666,"0.000896478579992088"
"LogLogistic","4",0.998912516285285,0.00141754245588015,"0.000859506526994291"
"LogLogistic","4",0.997447767268649,0.00337229967329464,"0.00204774821842202"
"LogLogistic","4",0.998777999382595,0.00158224951761875,"0.000959503500356229"
"LogLogistic","4",0.998311361654651,0.00225098436970038,"0.00136567394689657"
"LogLogistic","4",0.998924635922944,0.00140852597813528,"0.000854029153304126"
"LogLogistic","4",0.998810712418785,0.00158071956041039,"0.000958544312557708"
"LogLogistic","4",0.998131270488043,0.00247180436407307,"0.00149991618573964"
"LogLogistic","4",0.998258205937731,0.00229354979064843,"0.00139157251565036"
"LogLogistic","4",0.998443165826897,0.00202620893511366,"0.00122914023815746"
"LogLogistic","4",0.998639957090294,0.00178714258031992,"0.00108390400847136"
"LogLogistic","4",0.997539433679195,0.00319551275637655,"0.00194022028861696"
"LogLogistic","4",0.997423676518893,0.00337687708983789,"0.00205057727134683"
"LogLogistic","4",0.998030932853278,0.00257351919870175,"0.00156179478857621"
"LogLogistic","4",0.997258482304234,0.00358544778922167,"0.00217759054728517"
"LogLogistic","4",0.998986334834516,0.00133408454599852,"0.000808843248286006"
"LogLogistic","4",0.997419184485373,0.00342144800030925,"0.00207765190004783"
"LogLogistic","4",0.998534708930658,0.00193106210194843,"0.00117131480871913"
"LogLogistic","4",0.999398198510358,0.000787524545332871,"0.000477272152464847"
"LogLogistic","4",0.998927759358009,0.00140214938587358,"0.00085016018671813"
"LogLogistic","4",0.998388855622748,0.00210648230021878,"0.00127790523284155"
"LogLogistic","4",0.998944966316867,0.00139127650363516,"0.000843553140629227"
"LogLogistic","4",0.998244108198597,0.00231341313966315,"0.00140364408920024"
"LogLogistic","4",0.998763304738801,0.00162295680875753,"0.000984203586668286"
"LogLogistic","4",0.999175113416993,0.00108454963864279,"0.00065742828383919"
"LogLogistic","4",0.998464856201372,0.00201041494865124,"0.00121953278601139"
"LogLogistic","4",0.998201745297624,0.00236057026675545,"0.00143231706580527"
"LogLogistic","4",0.998918789320549,0.00141928946921451,"0.00086056039925797"
"LogLogistic","4",0.998615988988524,0.00181367713303653,"0.00110002364627215"
"LogLogistic","4",0.999072719467124,0.00121614026361462,"0.000737270956010505"
"LogLogistic","4",0.998409240845935,0.00205992933278854,"0.00124963818871526"
"LogLogistic","4",0.998214061262959,0.00236952064483252,"0.00143773012444037"
"LogLogistic","4",0.998948571288923,0.00137232773194682,"0.000832061195319866"
"LogLogistic","4",0.998650329640996,0.00176546329958841,"0.0010707443785638"
"LogLogistic","4",0.998702334642097,0.00169684006876023,"0.00102907115409878"
"LogLogistic","4",0.998882562284504,0.00147050678105814,"0.000891647423034714"
"LogLogistic","4",0.998531958872805,0.00193406341191921,"0.00117313852942869"
"LogLogistic","4",0.998065392815762,0.00256213730720787,"0.00155483376074317"
"LogLogistic","4",0.99855713851867,0.00188078842252263,"0.00114079492599939"
"LogLogistic","4",0.998083854446444,0.00248570211290994,"0.00150842113923755"
"LogLogistic","4",0.998844193432111,0.00150927596223395,"0.000915190418728562"
"LogLogistic","4",0.997176775745626,0.00366472992292899,"0.002225924234597"
"LogLogistic","4",0.998272026525898,0.00225990928358109,"0.00137114272431127"
"LogLogistic","4",0.9990665808561,0.00122219541366734,"0.000740946373234852"
"LogLogistic","4",0.998653006238135,0.00178414321326023,"0.00108207074960553"
"LogLogistic","4",0.998103840771721,0.00250217091834121,"0.00151838464849163"
"LogLogistic","4",0.998355498204404,0.00214583634138153,"0.00130182300214754"
"LogLogistic","4",0.99889804365087,0.00144605802847285,"0.000876809238804066"
"LogLogistic","4",0.998796600847405,0.00158081323430664,"0.000958614659836154"
"LogLogistic","4",0.99882351058671,0.00154624441923461,"0.000937626660625801"
"LogLogistic","4",0.997610761344704,0.003094482710794,"0.00187874351335049"
"LogLogistic","4",0.998158359355951,0.00239752945157246,"0.00145480592584124"
"LogLogistic","4",0.999218560068206,0.00104029280262663,"0.000630573419946101"
"LogLogistic","4",0.998125778471462,0.00251997789695101,"0.00152915679239851"
"LogLogistic","4",0.996135172094116,0.00513162589563521,"0.00312016292569561"
"LogLogistic","4",0.997844281504472,0.00279450344436562,"0.00169622099845168"
"LogLogistic","4",0.998586334477994,0.00186383165050532,"0.00113047671847144"
"LogLogistic","4",0.998436899536107,0.00208894767724272,"0.00126720680951786"
"LogLogistic","4",0.998799286064073,0.00157543276821733,"0.000955349344404999"
"LogLogistic","4",0.998106260370254,0.00247926027146318,"0.00150447820427502"
"LogLogistic","4",0.997974566287416,0.00266538305815026,"0.00161763568338036"
"LogLogistic","4",0.999202564127188,0.00104753625094733,"0.000634974200664606"
"LogLogistic","4",0.998732951108055,0.00166052058539163,"0.0010070138506697"
"LogLogistic","4",0.998930253888619,0.00140246545043524,"0.000850349701505104"
"LogLogistic","4",0.998379924510052,0.00213503080011088,"0.00129523587183744"
"LogLogistic","4",0.997669172251545,0.00311767981902182,"0.00189271628034393"
"LogLogistic","4",0.997918715780976,0.00270527437787569,"0.00164193783458422"
"LogLogistic","4",0.99793436499419,0.00269965828199008,"0.00163850350947725"
"LogLogistic","4",0.998682304475655,0.0017187567467362,"0.00104238372024756"
"LogLogistic","4",0.99868691836364,0.00173192203039802,"0.00105036328853592"
"Abilene","5",0.991880632642317,0.0143957024837162,"0.00970978277615897"
"Abilene","5",0.937896087190502,0.0998833315417732,"0.071248275562191"
"Abilene","5",0.990332290938594,0.0171295023569965,"0.0115717720009294"
"Abilene","5",0.971670500017773,0.048347083939334,"0.0332879713460987"
"Abilene","5",0.981122831861468,0.031899632641967,"0.0217519582670129"
"Abilene","5",0.864935442313042,0.200006320653914,"0.154702057260653"
"Abilene","5",0.988351915085385,0.0204958392016088,"0.0138736316316503"
"Abilene","5",0.973617355253357,0.0443980402868781,"0.030507846748081"
"Abilene","5",0.87838583493239,0.188986099149097,"0.143939702002049"
"Abilene","5",0.913248180440555,0.138901939171675,"0.101754952346863"
"Abilene","5",0.942512211379544,0.0936428634750162,"0.0664697065787556"
"Abilene","5",0.972224826770067,0.0472993910556348,"0.0325480447554942"
"Abilene","5",0.971168259077059,0.0499075208807142,"0.034380135128778"
"Abilene","5",0.967542464393358,0.0538430691394946,"0.037230239888681"
"Abilene","5",0.962137347346216,0.0633167187608966,"0.0440268272382762"
"Abilene","5",0.942336800326244,0.0945801083423235,"0.067147479848864"
"Abilene","5",0.96635674012136,0.0566444220228559,"0.0392153171495577"
"Abilene","5",0.960007216864712,0.0658135607505408,"0.0458645305333896"
"Abilene","5",0.963270406341693,0.0618063353166641,"0.0429260411591716"
"Abilene","5",0.981182395262979,0.0321745359196927,"0.0219380795062185"
"Abilene","5",0.946787834638737,0.0847522547804498,"0.0598872890578117"
"Abilene","5",0.952375523898209,0.0821672527997697,"0.0577200373450153"
"Abilene","5",0.983122303965593,0.0295412554257699,"0.0201028420667488"
"Abilene","5",0.970128857710762,0.0494450528031174,"0.0340980453149875"
"Abilene","5",0.965182154206104,0.0579293759316086,"0.0401537054152548"
"Abilene","5",0.981213371874303,0.0330805324121903,"0.0225551175348699"
"Abilene","5",0.955123229620148,0.0718619511072493,"0.0503356474017176"
"Abilene","5",0.966252656653294,0.0557347695951545,"0.0385897149964229"
"Abilene","5",0.967637151397739,0.0578807397871492,"0.0400182046652917"
"Abilene","5",0.950783978206604,0.0790059947723937,"0.0555922501548576"
"Abilene","5",0.971142865254049,0.0521635176562589,"0.0359351786744062"
"Abilene","5",0.956560657344872,0.0711416805098768,"0.0497562529702176"
"Abilene","5",0.96505139177356,0.0589993959886856,"0.0409009302901979"
"Abilene","5",0.971386711516299,0.0502163319025112,"0.034585088395461"
"Abilene","5",0.962108529467472,0.0599919148934452,"0.041716198145374"
"Abilene","5",0.955790814130202,0.0760886538807218,"0.0532590126010657"
"Abilene","5",0.96793578561756,0.0544338718876122,"0.0376234608552521"
"Abilene","5",0.982308125500728,0.0312378952893792,"0.0212750255497234"
"Abilene","5",0.97251217414747,0.0461318789629871,"0.0317352671976585"
"Abilene","5",0.943259082222303,0.0929230679930374,"0.0659065543129085"
"Abilene","5",0.964860550296939,0.0578406122591298,"0.0401055423226966"
"Abilene","5",0.992279343136847,0.0137233535050808,"0.00925256963195098"
"Abilene","5",0.974156853814731,0.0439493425032461,"0.0301828019374444"
"Abilene","5",0.964758496656469,0.059145183488184,"0.041014444453134"
"Abilene","5",0.948441029532157,0.0819208932905584,"0.0577857039223471"
"Abilene","5",0.932252675219674,0.106199789447487,"0.0762124774273039"
"Abilene","5",0.971896463268687,0.0477356575428502,"0.0328593500892298"
"Abilene","5",0.963137215159064,0.0595405235768995,"0.041358096977504"
"Abilene","5",0.946718405067531,0.0837565052847692,"0.0591880170105998"
"Abilene","5",0.947486863520742,0.0852048683614181,"0.0601626939044433"
"Abilene","5",0.912097360935441,0.133685810885307,"0.0980573557002504"
"Abilene","5",0.94114714290285,0.0924692060775171,"0.065731820816914"
"Abilene","5",0.979672193858214,0.0344365833386414,"0.0235166435429823"
"Abilene","5",0.934180591193388,0.102510837963735,"0.0734133438023039"
"Abilene","5",0.937775901102401,0.0982120698024678,"0.0700651179953704"
"Abilene","5",0.977849164758239,0.0377475766831649,"0.0258257694020414"
"Abilene","5",0.948251170341241,0.091898664662304,"0.0648368452747317"
"Abilene","5",0.974136394199371,0.0433394743012694,"0.0297645918763849"
"Abilene","5",0.980239290747546,0.0331061396554238,"0.0225950079500579"
"Abilene","5",0.956715312358516,0.0696727928582939,"0.048721040737989"
"Abilene","5",0.969895637279154,0.0529759355262662,"0.0365417793617455"
"Abilene","5",0.960373892699484,0.0650383373092512,"0.0453069833357733"
"Abilene","5",0.946602460833918,0.0852043887063635,"0.0602185644031423"
"Abilene","5",0.965720260698199,0.0557473270865982,"0.0386196886476848"
"Abilene","5",0.956807812104386,0.0707736353388188,"0.0494860572748843"
"Abilene","5",0.972493727252309,0.0452593365606111,"0.0311356141615704"
"Abilene","5",0.971594098303084,0.0486288135338055,"0.0334845808899527"
"Abilene","5",0.973545359554299,0.0457311067662036,"0.0314261792328372"
"Abilene","5",0.973672944131356,0.0433228828713062,"0.0297673592135528"
"Abilene","5",0.955403367142367,0.0745878600600294,"0.0522296892326999"
"Abilene","5",0.951010028520345,0.0776826085190331,"0.0546480620868963"
"Abilene","5",0.963006666165222,0.0604742560262442,"0.0420123817214422"
"Abilene","5",0.965799786064335,0.0559422801023126,"0.0387515537721832"
"Abilene","5",0.980071112864475,0.0346314465564788,"0.0236400889135209"
"Abilene","5",0.975908511289724,0.042183976962551,"0.0289184144401395"
"Abilene","5",0.96305992204124,0.0617686899331942,"0.0429092716102581"
"Abilene","5",0.968593877650686,0.0530057872822377,"0.0366115092007568"
"Abilene","5",0.929297143272419,0.111596573185792,"0.0803400908945249"
"Abilene","5",0.952365472286425,0.07843888902848,"0.0551015548724094"
"Abilene","5",0.956819939350554,0.0711585588301135,"0.0497545713097405"
"Abilene","5",0.944844701864066,0.0875953149421044,"0.0620235340405766"
"Abilene","5",0.93189418173111,0.115031077987561,"0.0825818583174036"
"Abilene","5",0.940279840598282,0.0965407774242743,"0.0686894009341712"
"Abilene","5",0.939952479791382,0.0989477649416972,"0.0704265076215034"
"Abilene","5",0.956529065077848,0.0694559618591681,"0.0485788714055904"
"Abilene","5",0.946869122097718,0.0872602404384577,"0.0616541781656132"
"Abilene","5",0.929843437851253,0.11134173838452,"0.0801095383809063"
"Abilene","5",0.938806824646162,0.0993200540416917,"0.0707777530459972"
"Abilene","5",0.951380189071721,0.0800865510384141,"0.056317264191184"
"Abilene","5",0.958790028029517,0.067856813627346,"0.0473484772027835"
"Abilene","5",0.943474168529039,0.0924038980651697,"0.0655233872437004"
"Abilene","5",0.974781890876935,0.0430010446387235,"0.0295126097909999"
"Abilene","5",0.976608937950459,0.0395213156557448,"0.0270736469382222"
"Abilene","5",0.98783642171948,0.0215521123321423,"0.0145962357534137"
"Abilene","5",0.957737352856959,0.0690682368534053,"0.0482467435795928"
"Abilene","5",0.975150239479368,0.0431233392879727,"0.0295853637752383"
"Abilene","5",0.98531238206301,0.0259316689328007,"0.0176072929431594"
"Abilene","5",0.979748868549546,0.0349418956804636,"0.0238598524781888"
"Abilene","5",0.976404825094933,0.0393925021105948,"0.0269910457942268"
"Abilene","5",0.948005654535626,0.0829626270368147,"0.0585474022110457"
"Abilene","5",0.939257887557673,0.0953481029423016,"0.0679146188791293"
"Abilene","5",0.949801307049591,0.0814384644992819,"0.0573631346519456"
"Abilene","5",0.96647132474091,0.0558975907199356,"0.0386936927192059"
"Abilene","5",0.945425147629832,0.0836147383238948,"0.059168661776277"
"Abilene","5",0.94314787963202,0.091244229926306,"0.0647234530956524"
"Abilene","5",0.950745081665159,0.0811433135739281,"0.0570985018228618"
"Abilene","5",0.960747686780704,0.0650066230263266,"0.0452672717404949"
"Abilene","5",0.975633775882282,0.0410857180866181,"0.0281734555043984"
"Abilene","5",0.971098754127665,0.0495876166274497,"0.0341622054326991"
"Abilene","5",0.947806850965969,0.0820795495449829,"0.0579363568948459"
"Abilene","5",0.972005109184632,0.0495839898249963,"0.0341278543025103"
"Abilene","5",0.97949071450939,0.0362063129088145,"0.0247297678326612"
"Abilene","5",0.952539130434029,0.0812937001908515,"0.0570965842675455"
"Abilene","5",0.956976850602433,0.0696372601941534,"0.0486828848389909"
"Abilene","5",0.950903071818703,0.0818143209050902,"0.0575611075240849"
"Abilene","5",0.956584481636579,0.071075837935477,"0.0497089648328504"
"Abilene","5",0.938867788037085,0.10438501829911,"0.0743823328040785"
"Abilene","5",0.865927204733482,0.203490010318741,"0.157216372612073"
"Abilene","5",0.961000314619031,0.066673120131232,"0.0464155297604987"
"Abilene","5",0.966664067799863,0.0569281336089602,"0.0393992025867975"
"Abilene","5",0.961083161697795,0.0662225743088302,"0.0460979012137614"
"LogNormal","5",0.995037182897659,0.00896045803475624,"0.00602458258794192"
"LogNormal","5",0.995285209160369,0.00844054856319512,"0.00567360615202173"
"LogNormal","5",0.99541124928515,0.0082790738888138,"0.00556436071921818"
"LogNormal","5",0.994712148855092,0.00942182161163121,"0.00633685131326045"
"LogNormal","5",0.994264203890029,0.0103402949686107,"0.00695772381749071"
"LogNormal","5",0.991454293349566,0.0155169542284421,"0.010470558396527"
"LogNormal","5",0.993998021174689,0.0108612331639128,"0.00731020707301777"
"LogNormal","5",0.993255757649348,0.0121116093795837,"0.00815787086536757"
"LogNormal","5",0.993920270228677,0.010938810666981,"0.00736299693455322"
"LogNormal","5",0.992422889510365,0.0136859913172753,"0.00922604460006093"
"LogNormal","5",0.994989801174905,0.00912173697514643,"0.00613331087506008"
"LogNormal","5",0.994441378215937,0.00992609602061287,"0.00667782982146381"
"LogNormal","5",0.995180408943654,0.0086653208134403,"0.00582530796648228"
"LogNormal","5",0.995156002373332,0.00887764870320365,"0.00596819288729433"
"LogNormal","5",0.994427578351853,0.0100749906111346,"0.00677809344771685"
"LogNormal","5",0.994462453070131,0.0101764307559532,"0.00684609865645136"
"LogNormal","5",0.994014591853657,0.0106545883548488,"0.00717100420920636"
"LogNormal","5",0.995572856805514,0.00793675350440427,"0.005333421494643"
"LogNormal","5",0.993898919808587,0.0109785725405633,"0.00738991969809089"
"LogNormal","5",0.993436193139851,0.011731746574012,"0.00790057602643435"
"LogNormal","5",0.993839598959412,0.01120943846374,"0.00754577102018494"
"LogNormal","5",0.99484035619609,0.0092519965207931,"0.00622182982525121"
"LogNormal","5",0.995511047499478,0.00806350284675816,"0.0054189322551168"
"LogNormal","5",0.99264995726841,0.01319830972295,"0.0088952518648826"
"LogNormal","5",0.993217522517917,0.0123865755334305,"0.00834339768310111"
"LogNormal","5",0.995380154651626,0.00840442038602892,"0.00564878248323231"
"LogNormal","5",0.993715784313991,0.011307158821666,"0.00761250105949429"
"LogNormal","5",0.994598084669602,0.00966141286005189,"0.00649873883913488"
"LogNormal","5",0.994189029511193,0.0105902049997335,"0.00712642079227832"
"LogNormal","5",0.992975245417573,0.0127805885189111,"0.00861089895104916"
"LogNormal","5",0.995045002020599,0.00893245341558731,"0.00600570643045373"
"LogNormal","5",0.993683264262566,0.0113863801987614,"0.00766608742415809"
"LogNormal","5",0.994668742638098,0.00962273728105927,"0.00647226395221523"
"LogNormal","5",0.993875108035353,0.0108207988338316,"0.00728389323790157"
"LogNormal","5",0.995036514895818,0.00909001096049196,"0.00611169186987714"
"LogNormal","5",0.992719292250023,0.0130425354525219,"0.00878965088976846"
"LogNormal","5",0.99479366043673,0.00955223459807943,"0.00642403699039873"
"LogNormal","5",0.992989023239213,0.0127912432666501,"0.00861795799184284"
"LogNormal","5",0.993519434563649,0.011708738107247,"0.00788442065859662"
"LogNormal","5",0.994427472870261,0.00984258577629448,"0.00662174048695308"
"LogNormal","5",0.993849611573521,0.0110447593221965,"0.00743484033213404"
"LogNormal","5",0.994533699466891,0.00976283001321985,"0.00656738211556362"
"LogNormal","5",0.995173441956378,0.00875264578641577,"0.00588405383629143"
"LogNormal","5",0.994444108080295,0.00998829095050001,"0.0067196533195597"
"LogNormal","5",0.99319738602428,0.0122624962132967,"0.00825998731545852"
"LogNormal","5",0.993410352347399,0.0119582337883013,"0.00805331006287879"
"LogNormal","5",0.993500722690898,0.0116796742572656,"0.00786499779544547"
"LogNormal","5",0.995255145182708,0.00858154194289526,"0.00576855396762355"
"LogNormal","5",0.99422512295769,0.0103845007081372,"0.00698774340818042"
"LogNormal","5",0.993339259461133,0.0122769736538028,"0.00826855816031546"
"LogNormal","5",0.993552144529494,0.0115353022507725,"0.00776737683302864"
"LogNormal","5",0.992276287487564,0.0141930754142292,"0.00956929535567097"
"LogNormal","5",0.99463604998312,0.00958421937690723,"0.00644656865148274"
"LogNormal","5",0.992382892269701,0.013713878966913,"0.00924521691881042"
"LogNormal","5",0.994769338614539,0.00931475971263419,"0.00626448433262539"
"LogNormal","5",0.9912962486149,0.0156516830557798,"0.0105631547985516"
"LogNormal","5",0.99356417765719,0.0117549841337446,"0.00791520530992118"
"LogNormal","5",0.994653629714506,0.00969466330766185,"0.00652074055451113"
"LogNormal","5",0.993360704971361,0.0121463222000205,"0.00818038762268403"
"LogNormal","5",0.995165773571411,0.00880855470574166,"0.00592168479754118"
"LogNormal","5",0.99331151180825,0.0120222173362962,"0.00809720562508032"
"LogNormal","5",0.992312268638398,0.0138290231126783,"0.00932350490395795"
"LogNormal","5",0.993146793365845,0.0123058092469343,"0.00828958513313216"
"LogNormal","5",0.994598976514486,0.00962466520387569,"0.00647401476304976"
"LogNormal","5",0.99406702340727,0.0107299078556985,"0.00722131662455094"
"LogNormal","5",0.992647111485526,0.0132226764546117,"0.00891169983567819"
"LogNormal","5",0.995293494764601,0.00841354101358231,"0.0056554050146107"
"LogNormal","5",0.994385203502197,0.00999183580170972,"0.00672243632366643"
"LogNormal","5",0.993273827265504,0.0122025755533381,"0.00821899233303292"
"LogNormal","5",0.993968315428391,0.0109929853430057,"0.00739910465642168"
"LogNormal","5",0.992608283149605,0.0132776446242873,"0.0089490968377488"
"LogNormal","5",0.99315982895442,0.0121537416473782,"0.00818704009434823"
"LogNormal","5",0.992743076393081,0.0129924339936784,"0.00875567664349663"
"LogNormal","5",0.993707827282411,0.0114663231728818,"0.00771971965948515"
"LogNormal","5",0.994619034986808,0.00967296513650071,"0.00650637241440455"
"LogNormal","5",0.993622646142873,0.0116547069596151,"0.00784722200064003"
"LogNormal","5",0.992659108326632,0.0132135364306018,"0.00890543209656292"
"LogNormal","5",0.994873321364027,0.00920425441810451,"0.00618951887569308"
"LogNormal","5",0.993986260158451,0.010684699149784,"0.00719147506538054"
"LogNormal","5",0.992739010809011,0.0131391627482998,"0.00885459426472757"
"LogNormal","5",0.994371765913503,0.0101627307572411,"0.00683750563714591"
"LogNormal","5",0.993350159806151,0.0120567927153822,"0.00812017689784028"
"LogNormal","5",0.995959344466148,0.00726845160898055,"0.00488243370127162"
"LogNormal","5",0.994981674309731,0.00916614636987654,"0.00616322138569636"
"LogNormal","5",0.99405552548386,0.0108655838492213,"0.00731271227181818"
"LogNormal","5",0.990578242107502,0.0168440077431007,"0.0113760818952229"
"LogNormal","5",0.993771570599272,0.0110788534560705,"0.00745837664642313"
"LogNormal","5",0.994034075520899,0.0107166338194631,"0.00721262214749663"
"LogNormal","5",0.994161600202283,0.0105940997966896,"0.00712923839418833"
"LogNormal","5",0.993755610213912,0.0113822022224979,"0.00766271663512885"
"LogNormal","5",0.993322299471702,0.012090718734744,"0.00814325425904183"
"LogNormal","5",0.994478676524273,0.00985864396225039,"0.00663220236545214"
"LogNormal","5",0.994272498288601,0.0103063368740784,"0.00693481641976579"
"LogNormal","5",0.993291467634417,0.0120200532391591,"0.00809591143059629"
"LogNormal","5",0.995025416909519,0.00900148887540872,"0.00605224132472282"
"LogNormal","5",0.9946236881364,0.00955920970110252,"0.0064298264755922"
"LogNormal","5",0.994949226871935,0.00906917818713868,"0.00609821985881043"
"LogNormal","5",0.993387106407364,0.0119402410672428,"0.00804138097786122"
"LogNormal","5",0.994758544962841,0.00938758452419391,"0.00631352993410594"
"LogNormal","5",0.994663472446224,0.00965806400247429,"0.00649605916387141"
"LogNormal","5",0.99477955854886,0.00927755810776809,"0.00623940091998998"
"LogNormal","5",0.993463330698313,0.0118125285984809,"0.00795476022007868"
"LogNormal","5",0.992945580509012,0.0127004311156748,"0.00855714868499469"
"LogNormal","5",0.994101779343822,0.0107223274204976,"0.00721596263464397"
"LogNormal","5",0.993691576952065,0.0115014499008603,"0.00774349541410624"
"LogNormal","5",0.993929321345923,0.0108047698077955,"0.00727270678058822"
"LogNormal","5",0.991742907405818,0.0149812963530636,"0.0101061642861588"
"LogNormal","5",0.993171235515778,0.0122051440443311,"0.00822157150622349"
"LogNormal","5",0.993959124945188,0.0108748065449013,"0.00731962912978323"
"LogNormal","5",0.994054445352594,0.0107991065293927,"0.00726797986624428"
"LogNormal","5",0.99343233529353,0.0116730422130403,"0.00786107294589922"
"LogNormal","5",0.994942651033125,0.00919955053916565,"0.00618592461389467"
"LogNormal","5",0.994659845822824,0.00954575342970724,"0.00642054195547992"
"LogNormal","5",0.993449291081844,0.0118085736056695,"0.00795220924036011"
"LogNormal","5",0.994420503221737,0.0100264841244401,"0.00674550801062113"
"LogNormal","5",0.993072996595546,0.0123884748814102,"0.00834589148783449"
"LogNormal","5",0.992551522674977,0.0133648198514838,"0.00900836783379511"
"LogNormal","5",0.994548768106854,0.00993127155458811,"0.00668059024929102"
"LogNormal","5",0.99386971572526,0.0111366352540006,"0.00749653547552587"
"LogNormal","5",0.994605809393696,0.00959047330630132,"0.00645097132293326"
"LogNormal","5",0.995052716662562,0.00886617455824198,"0.00596109783636489"
"LogLogistic","5",0.993676617167237,0.0112833685564829,"0.00759678378123319"
"LogLogistic","5",0.993429274039803,0.0117693901464306,"0.00792598175196346"
"LogLogistic","5",0.994879141821701,0.00924508531682464,"0.00621693976505977"
"LogLogistic","5",0.994448300934351,0.00996988645372249,"0.0067072433583899"
"LogLogistic","5",0.992875405433267,0.0129091853478303,"0.00869841543096594"
"LogLogistic","5",0.993970293105889,0.0109484493929047,"0.00736911395539863"
"LogLogistic","5",0.994919813331265,0.00905876226820256,"0.0060913961540292"
"LogLogistic","5",0.993779835769496,0.0111568523821223,"0.00751082370736178"
"LogLogistic","5",0.993337401147078,0.0120475839125034,"0.0081140790426546"
"LogLogistic","5",0.994410074992325,0.0101035652271402,"0.0067974370723638"
"LogLogistic","5",0.994323462506718,0.0102714870385705,"0.00691101279630457"
"LogLogistic","5",0.995093622470703,0.00873208981334352,"0.00587070574680304"
"LogLogistic","5",0.993745523380285,0.0112395684833617,"0.00756676967322312"
"LogLogistic","5",0.992852202232599,0.0128975736116868,"0.00869079435880726"
"LogLogistic","5",0.994164565991074,0.0104278545317794,"0.00701734366721718"
"LogLogistic","5",0.994869495738379,0.0092977049933591,"0.00625238495553804"
"LogLogistic","5",0.994660754807203,0.00982106668784823,"0.00660571358312545"
"LogLogistic","5",0.992884113093261,0.0129910932197093,"0.00875352949456198"
"LogLogistic","5",0.993447633547395,0.0116477494687855,"0.00784391905326443"
"LogLogistic","5",0.995119059697241,0.00869198031265295,"0.00584359019254821"
"LogLogistic","5",0.994929236042056,0.00917007715439566,"0.00616618937940183"
"LogLogistic","5",0.99397660042902,0.0106105764234991,"0.00714165520884436"
"LogLogistic","5",0.994499167409193,0.0098206255515368,"0.00660649012788816"
"LogLogistic","5",0.993966440778809,0.0109573354806899,"0.00737512353162018"
"LogLogistic","5",0.993527736087608,0.011582931410473,"0.00779963987496579"
"LogLogistic","5",0.993194924565112,0.0121662584287671,"0.0081951820905628"
"LogLogistic","5",0.993238920150907,0.0121092119634846,"0.00815639433245341"
"LogLogistic","5",0.993815073463884,0.0110233813653904,"0.00742070752651758"
"LogLogistic","5",0.99490592857153,0.0092222723573919,"0.0062014320165491"
"LogLogistic","5",0.993626441015058,0.0115184772177128,"0.00775546763540236"
"LogLogistic","5",0.994112421275698,0.0105619342303236,"0.00710794437564077"
"LogLogistic","5",0.993962236285025,0.0108854969894692,"0.00732680173359457"
"LogLogistic","5",0.99475769227491,0.0095026478440605,"0.00639092014446785"
"LogLogistic","5",0.993991338441675,0.0108969718562929,"0.00733431048710464"
"LogLogistic","5",0.993901261104845,0.0109554877169579,"0.00737436342181441"
"LogLogistic","5",0.994811873023835,0.00939507083327631,"0.00631822606537735"
"LogLogistic","5",0.995191925105889,0.0086412252505817,"0.00580904237444457"
"LogLogistic","5",0.993840240008162,0.01104171589069,"0.00743286171814006"
"LogLogistic","5",0.995421571249822,0.00839446574815231,"0.00564185701689368"
"LogLogistic","5",0.993146946342644,0.0124073427068666,"0.00835798001887955"
"LogLogistic","5",0.994750339385039,0.00953213464852237,"0.00641079861530525"
"LogLogistic","5",0.993759797559762,0.0113123184083545,"0.00761563742268745"
"LogLogistic","5",0.99486680422547,0.00921717621661647,"0.00619824890775655"
"LogLogistic","5",0.993977061261355,0.0109733753722225,"0.00738584068615777"
"LogLogistic","5",0.994203091290463,0.0104062409416569,"0.0070025276117498"
"LogLogistic","5",0.993311329319704,0.0120385853842461,"0.00810823132481531"
"LogLogistic","5",0.995236089674445,0.00863002734597516,"0.00580125716282698"
"LogLogistic","5",0.994665342083207,0.00963196980438938,"0.00647849590638438"
"LogLogistic","5",0.994478396696739,0.00991427772681957,"0.00666963072661275"
"LogLogistic","5",0.993734267589924,0.0115117406606686,"0.00775009084047573"
"LogLogistic","5",0.99447437120552,0.010006350246529,"0.00673159790890221"
"LogLogistic","5",0.993891553244382,0.0109914661474554,"0.00739865350693725"
"LogLogistic","5",0.993426398163057,0.0117195437335711,"0.00789243601602108"
"LogLogistic","5",0.993258925212542,0.0120246309878774,"0.00809926004846195"
"LogLogistic","5",0.993130315210346,0.0123372190006064,"0.00831088163683091"
"LogLogistic","5",0.994059712986333,0.0105452250998194,"0.00709707579648322"
"LogLogistic","5",0.996343509908006,0.00652002411365786,"0.00437800413807965"
"LogLogistic","5",0.992324383397781,0.0138034151305166,"0.0093061264290859"
"LogLogistic","5",0.993297478418054,0.0121057668198542,"0.00815359307880881"
"LogLogistic","5",0.995087341710969,0.00889110069081963,"0.00597764870635897"
"LogLogistic","5",0.991384814688874,0.0155637136138481,"0.0105028467925385"
"LogLogistic","5",0.993380539209619,0.0120196895420413,"0.00809494056949234"
"LogLogistic","5",0.994256838562902,0.0103814882659051,"0.00698549349606115"
"LogLogistic","5",0.994696657677136,0.00939759044125607,"0.00632065254678071"
"LogLogistic","5",0.994570905950632,0.00965525309604373,"0.00649477295891465"
"LogLogistic","5",0.993622977874457,0.0113473326804476,"0.00764026150451569"
"LogLogistic","5",0.994326683142685,0.01016553682689,"0.00683970366453135"
"LogLogistic","5",0.993660221800136,0.0113021619845995,"0.00760956243844246"
"LogLogistic","5",0.994258714237712,0.0103118154564206,"0.00693859898190929"
"LogLogistic","5",0.992811294147908,0.0130973866224096,"0.00882579835157005"
"LogLogistic","5",0.994745938160487,0.00946133982452159,"0.00636321399640893"
"LogLogistic","5",0.991522864757157,0.015243174448216,"0.0102851054389173"
"LogLogistic","5",0.993354451002124,0.0119046898549995,"0.0080177019064025"
"LogLogistic","5",0.99366906394376,0.0114408717754842,"0.00770288494736926"
"LogLogistic","5",0.995139852091581,0.00904538376431886,"0.00608105512781654"
"LogLogistic","5",0.993138270319036,0.0123138022733833,"0.00829504067725928"
"LogLogistic","5",0.994741311343887,0.00951403636573618,"0.0063986847608466"
"LogLogistic","5",0.995469994553262,0.00810627040149285,"0.00544789808286295"
"LogLogistic","5",0.995433168114267,0.00819851625276765,"0.00551009664751279"
"LogLogistic","5",0.99424617931556,0.0105683464717924,"0.00711130284271988"
"LogLogistic","5",0.993528473942738,0.0114797457517615,"0.00773015163869761"
"LogLogistic","5",0.995599766468677,0.00793678435115549,"0.00533329806790972"
"LogLogistic","5",0.99304603557272,0.0124465709420956,"0.00838525740534113"
"LogLogistic","5",0.995441892885841,0.00822204514473021,"0.00552586162076629"
"LogLogistic","5",0.993233120722208,0.0121405191314909,"0.0081775296298634"
"LogLogistic","5",0.99488003024324,0.00915082673600232,"0.00615354924980105"
"LogLogistic","5",0.994829653959277,0.00921615270009403,"0.00619779206408122"
"LogLogistic","5",0.994703196940126,0.00959972858547904,"0.00645656462885125"
"LogLogistic","5",0.994062096059165,0.0107927229587019,"0.00726362771180877"
"LogLogistic","5",0.993347711758119,0.0120191482230649,"0.00809484350940215"
"LogLogistic","5",0.994083694248314,0.0107482437362038,"0.00723353551475681"
"LogLogistic","5",0.995386222046942,0.00837872740022952,"0.00563147937606256"
"LogLogistic","5",0.994384446446527,0.0100547650049429,"0.00676477979590784"
"LogLogistic","5",0.994650822709537,0.0095929798438971,"0.00645236531206672"
"LogLogistic","5",0.994361518888588,0.0100486036217962,"0.00676079034161736"
"LogLogistic","5",0.99463180244178,0.00979947089890257,"0.00659137997489756"
"LogLogistic","5",0.993925224200255,0.0107525300009961,"0.00723757392270574"
"LogLogistic","5",0.994845345452211,0.00928202606674888,"0.00624199294310923"
"LogLogistic","5",0.993519444437537,0.0118182268375464,"0.0079581480127402"
"LogLogistic","5",0.994811382720643,0.009356898507923,"0.00629255811162954"
"LogLogistic","5",0.993270750854145,0.0119076857793544,"0.00802039543394306"
"LogLogistic","5",0.994310672855234,0.010347968741209,"0.00696256189609601"
"LogLogistic","5",0.993500377392693,0.0119139482056877,"0.0080227587581656"
"LogLogistic","5",0.99511774282432,0.00874464826866533,"0.00587900646855033"
"LogLogistic","5",0.992835305915672,0.012726372517013,"0.00857557956760147"
"LogLogistic","5",0.994357642763957,0.010166467169924,"0.00684011665387096"
"LogLogistic","5",0.994144892814237,0.0104258950423085,"0.00701616388443282"
"LogLogistic","5",0.994735292963777,0.00953952878191167,"0.00641586855513454"
"LogLogistic","5",0.994633692021934,0.00974868476652282,"0.0065572074390734"
"LogLogistic","5",0.994717308646675,0.00957377489102636,"0.00643901739994979"
"LogLogistic","5",0.994319819504132,0.0101509196488909,"0.00682991589750648"
"LogLogistic","5",0.993673375475741,0.0113327685840519,"0.00763006836188707"
"LogLogistic","5",0.993108159709049,0.0126216544059228,"0.00850267925039416"
"LogLogistic","5",0.99620882328496,0.00679485788715882,"0.00456316377409927"
"LogLogistic","5",0.993924333648385,0.0108942370113792,"0.00733296408764783"
"LogLogistic","5",0.994437170348877,0.00990825683772302,"0.00666585662943264"
"LogLogistic","5",0.992639687074421,0.0133715385245653,"0.00901209595178187"
"LogLogistic","5",0.993809889098488,0.0111917447026225,"0.00753408547192258"
"LogLogistic","5",0.993273066714195,0.0120321424700296,"0.00810420406747347"
"LogLogistic","5",0.993888672851198,0.010986642915585,"0.00739542829161621"
"LogLogistic","5",0.99442156883157,0.0100765786974698,"0.00677920282346856"
"Abilene","6",0.965488903850511,0.0865586215595341,"0.0616705511263045"
"Abilene","6",0.902240474107697,0.214525821563366,"0.163558098604644"
"Abilene","6",0.965317698978336,0.0878522577426332,"0.0626033311475753"
"Abilene","6",0.935983204372841,0.153752017525977,"0.112997166251918"
"Abilene","6",0.953739370686332,0.111260785315303,"0.080246702414275"
"Abilene","6",0.824186325730119,0.325773998710703,"0.271897865743371"
"Abilene","6",0.96174825204402,0.0955184851087744,"0.0683188905604495"
"Abilene","6",0.943607719388033,0.132966213977347,"0.0969314261849359"
"Abilene","6",0.848774216203972,0.304325107012937,"0.24663822711197"
"Abilene","6",0.879833589026452,0.256826829660555,"0.200795806081247"
"Abilene","6",0.911177360459821,0.195805342792722,"0.147821090607614"
"Abilene","6",0.943072515180775,0.136173476806083,"0.0993258345728369"
"Abilene","6",0.944040876564913,0.137198811837661,"0.0999710688926476"
"Abilene","6",0.937148006508891,0.146512227013897,"0.107542584362602"
"Abilene","6",0.930961021255349,0.160478503230499,"0.118576916343736"
"Abilene","6",0.909391317928191,0.200521751943322,"0.151679005144686"
"Abilene","6",0.934667254051818,0.154477811479995,"0.113690418546905"
"Abilene","6",0.927609797190539,0.16733164026492,"0.124087354625791"
"Abilene","6",0.932161004749129,0.159219415404628,"0.117495133407978"
"Abilene","6",0.950728356297116,0.121030545463005,"0.0875695923540332"
"Abilene","6",0.915890690300139,0.187100748477713,"0.140522758013241"
"Abilene","6",0.907701021441289,0.207933495570244,"0.157578301551229"
"Abilene","6",0.954323043381636,0.11150875571135,"0.0803763617507585"
"Abilene","6",0.936913445405829,0.146501361313849,"0.10756153058797"
"Abilene","6",0.930162609383909,0.16211683855577,"0.119890296137726"
"Abilene","6",0.952546763532259,0.118655084027511,"0.0856869787432042"
"Abilene","6",0.920377694770572,0.176600779143419,"0.131990086964454"
"Abilene","6",0.93331288834377,0.153458158693031,"0.113103880252203"
"Abilene","6",0.931326231170186,0.165386697795137,"0.122155640578637"
"Abilene","6",0.915026422547362,0.190927371617368,"0.14353220067739"
"Abilene","6",0.936168963506405,0.154425149357282,"0.113469352285565"
"Abilene","6",0.925032597750656,0.170636303454375,"0.126890521330641"
"Abilene","6",0.930489069237073,0.164197787516353,"0.121386617564124"
"Abilene","6",0.935111524249665,0.157477697230686,"0.115843169402561"
"Abilene","6",0.928449994304969,0.159751521310309,"0.118358995171403"
"Abilene","6",0.919426452703582,0.189598948610398,"0.14185142887882"
"Abilene","6",0.938602840226342,0.148734455240387,"0.10900452024756"
"Abilene","6",0.948426699294907,0.12599093201925,"0.09137982079729"
"Abilene","6",0.941397319399017,0.138337474703332,"0.101083825873503"
"Abilene","6",0.910619596090203,0.200797950528748,"0.151683055565897"
"Abilene","6",0.929926205217457,0.164828870559416,"0.121926913838825"
"Abilene","6",0.967089824662056,0.0844405817014493,"0.0600619167068746"
"Abilene","6",0.944618574964311,0.135768072052445,"0.0988680467825671"
"Abilene","6",0.938267352551474,0.145187865372595,"0.10644334153073"
"Abilene","6",0.914423220446906,0.187668954786001,"0.141175707921982"
"Abilene","6",0.897583459801923,0.219955100888578,"0.168567552706831"
"Abilene","6",0.940664493678434,0.141958569817517,"0.103810587443473"
"Abilene","6",0.93181631149332,0.154220687267275,"0.113848446895774"
"Abilene","6",0.911256226772212,0.195736404482915,"0.147756257450195"
"Abilene","6",0.911544477252697,0.195992280125349,"0.147902626365826"
"Abilene","6",0.868700370641374,0.265969069579732,"0.210608508232533"
"Abilene","6",0.907852329839568,0.199757155644943,"0.151356793199277"
"Abilene","6",0.95157667854158,0.11714766270379,"0.0846846356122155"
"Abilene","6",0.899133407260803,0.213999365043973,"0.163720527540183"
"Abilene","6",0.901087451305065,0.210705396940933,"0.160850902772419"
"Abilene","6",0.947064645949643,0.127568872009785,"0.0926573500667343"
"Abilene","6",0.90399482335015,0.221046185700162,"0.168202275383107"
"Abilene","6",0.944539316591056,0.132358990408089,"0.096393597841268"
"Abilene","6",0.953218138427504,0.113394336024534,"0.0818302446014383"
"Abilene","6",0.920981839070182,0.175204641829764,"0.130860726320778"
"Abilene","6",0.938186867351495,0.152320464982062,"0.111682131001107"
"Abilene","6",0.927260312343712,0.167025151424638,"0.123906756026245"
"Abilene","6",0.910575308485735,0.199547235011176,"0.15074559474577"
"Abilene","6",0.934295849202655,0.151746755703761,"0.111724849964337"
"Abilene","6",0.925424417811672,0.168483677778906,"0.125236714126673"
"Abilene","6",0.941905043108802,0.135793800148771,"0.0991716649923804"
"Abilene","6",0.938309873685074,0.147467488178675,"0.10810972965949"
"Abilene","6",0.946540533566158,0.13218768694478,"0.096065306246782"
"Abilene","6",0.943153086031315,0.133217308537867,"0.0971612849694874"
"Abilene","6",0.922724857909542,0.182341698927761,"0.135934145389215"
"Abilene","6",0.914372477255109,0.193480202682855,"0.145555350089969"
"Abilene","6",0.931768446730728,0.156134568166728,"0.115267228674827"
"Abilene","6",0.932976768190673,0.15616513284777,"0.115140478539664"
"Abilene","6",0.95172713633911,0.120433816213053,"0.0870463931665113"
"Abilene","6",0.946450284839435,0.131971276017124,"0.0959171783417463"
"Abilene","6",0.931151473369098,0.161748392092314,"0.119490787156924"
"Abilene","6",0.944087983299973,0.134631316845389,"0.098095347195009"
"Abilene","6",0.890782921311992,0.231341598968847,"0.178647373646172"
"Abilene","6",0.921599516716827,0.178281607476513,"0.13306967238884"
"Abilene","6",0.924295969114096,0.173776033493248,"0.12932831097844"
"Abilene","6",0.907734220045999,0.20206106283995,"0.153122393786622"
"Abilene","6",0.899007725571339,0.228171119277044,"0.174587052802659"
"Abilene","6",0.905179744091016,0.207906378452633,"0.15799661094438"
"Abilene","6",0.906835466380188,0.210166563371803,"0.159422608344539"
"Abilene","6",0.925062170599373,0.167332833080213,"0.124429978907814"
"Abilene","6",0.912912854736822,0.194412829716195,"0.146490811181591"
"Abilene","6",0.89203595445291,0.231321875449901,"0.178381220069721"
"Abilene","6",0.906398168938325,0.207199813306755,"0.157247998022414"
"Abilene","6",0.921915456056442,0.179453735293923,"0.133898647796896"
"Abilene","6",0.925674914484649,0.171242342954538,"0.127252830559051"
"Abilene","6",0.906922647601433,0.206552823759236,"0.156666331498417"
"Abilene","6",0.94699979190425,0.129642710652969,"0.0941700940474917"
"Abilene","6",0.94592587111303,0.130829766718368,"0.0951402412108804"
"Abilene","6",0.960278760988973,0.0996914771706093,"0.0714127064327652"
"Abilene","6",0.924308626016181,0.174830123130048,"0.130111008199867"
"Abilene","6",0.944291040214483,0.138760130114612,"0.101081950647155"
"Abilene","6",0.957221371561218,0.108031186783988,"0.0776339253144158"
"Abilene","6",0.947804919804519,0.127616427794244,"0.0926194952491342"
"Abilene","6",0.945823337337755,0.130652612589267,"0.095021713490484"
"Abilene","6",0.910778804551432,0.197297239599829,"0.149012560925944"
"Abilene","6",0.904888519783705,0.202598024012087,"0.15401212446342"
"Abilene","6",0.918416746146244,0.183580800387757,"0.137499858051658"
"Abilene","6",0.935998026933884,0.148459376289594,"0.109105710844089"
"Abilene","6",0.911738909691101,0.186701018594281,"0.140861069930612"
"Abilene","6",0.908301992345521,0.201728989336471,"0.152775189350716"
"Abilene","6",0.916870560457024,0.189234437218813,"0.141973382470007"
"Abilene","6",0.928036832660999,0.166858135847425,"0.123679283002085"
"Abilene","6",0.943636132647306,0.135188824301358,"0.0985487259041946"
"Abilene","6",0.939661374214906,0.14308340380758,"0.104744848439235"
"Abilene","6",0.911471258309627,0.191633915074116,"0.144625268619234"
"Abilene","6",0.932550067932377,0.163539231718345,"0.1206325698838"
"Abilene","6",0.9506581839798,0.122924456216502,"0.0889464643132953"
"Abilene","6",0.921896162186332,0.184163492513534,"0.137415689123348"
"Abilene","6",0.924107173906215,0.168924564696973,"0.125743415159666"
"Abilene","6",0.915844216904893,0.192238644208805,"0.144388921414316"
"Abilene","6",0.923944608018386,0.17323257387576,"0.128972882881022"
"Abilene","6",0.896465719424,0.235634903895762,"0.180809281110775"
"Abilene","6",0.817920876432771,0.336291981525925,"0.282826437918728"
"Abilene","6",0.927681662331573,0.170832570657726,"0.12667370961975"
"Abilene","6",0.930633537205106,0.163889143118878,"0.121139637625615"
"Abilene","6",0.922279018738477,0.179279810955691,"0.133716143152443"
"LogNormal","6",0.970339464414391,0.0766585064342978,"0.0543439802095671"
"LogNormal","6",0.967448875024669,0.0832127863826691,"0.0591666288965076"
"LogNormal","6",0.966748802193931,0.085082101434784,"0.0605395725283446"
"LogNormal","6",0.972448957489553,0.0711180839786586,"0.0503069534164893"
"LogNormal","6",0.970194197396729,0.0760752016235345,"0.0539385446085903"
"LogNormal","6",0.965248372466884,0.0905112449187865,"0.0645027521412116"
"LogNormal","6",0.967632207574597,0.0832709340193691,"0.0591967556541424"
"LogNormal","6",0.971910671964497,0.0714962776605405,"0.050602487401513"
"LogNormal","6",0.970050004963051,0.0775097229982223,"0.0549638122386891"
"LogNormal","6",0.970944594436703,0.0749835487100336,"0.0531234567346872"
"LogNormal","6",0.968114210317939,0.0819951041561578,"0.0582607554556995"
"LogNormal","6",0.972113595135209,0.0715410926425482,"0.0506236362281052"
"LogNormal","6",0.970039845541028,0.0780301433749105,"0.0553334330369868"
"LogNormal","6",0.971465320223181,0.0729487730347516,"0.0516541803841641"
"LogNormal","6",0.969641882128789,0.0778347649880637,"0.0552175378229585"
"LogNormal","6",0.970026160945429,0.0777213702800924,"0.0551152506235311"
"LogNormal","6",0.969320617617452,0.078016344350415,"0.0553646974408188"
"LogNormal","6",0.968877976042987,0.0792070704936429,"0.0562353822966917"
"LogNormal","6",0.968393591200568,0.0814971268207261,"0.0578902168109576"
"LogNormal","6",0.973363633049506,0.0690762289845075,"0.0488166855417331"
"LogNormal","6",0.970462758495164,0.0766267068287778,"0.0543145357931158"
"LogNormal","6",0.966253313454158,0.087618356149797,"0.0623761965170524"
"LogNormal","6",0.970329435583387,0.0758408046853184,"0.0537648589600885"
"LogNormal","6",0.970666831188873,0.0753087019888295,"0.0533690850556279"
"LogNormal","6",0.969418985422754,0.0788733182996399,"0.0559671737679852"
"LogNormal","6",0.967592660063499,0.0819991222828899,"0.0582950156517463"
"LogNormal","6",0.96937383544035,0.0792196769408241,"0.0562155622053999"
"LogNormal","6",0.969492124016654,0.0788141221456375,"0.0559209501764775"
"LogNormal","6",0.968143211048825,0.0828170464374907,"0.0588430151692685"
"LogNormal","6",0.972612735504425,0.0705994912658133,"0.0499317059601512"
"LogNormal","6",0.968784288904146,0.0790981457868584,"0.0561634788206433"
"LogNormal","6",0.972511702299853,0.0698880200317879,"0.0494336508313635"
"LogNormal","6",0.973221425951068,0.0679126192653539,"0.0480013668201762"
"LogNormal","6",0.972262312821936,0.0713144977316824,"0.0504555751095337"
"LogNormal","6",0.969822950269908,0.0775085811373631,"0.0549758704442294"
"LogNormal","6",0.972963793895855,0.0699890638896214,"0.0494821190760821"
"LogNormal","6",0.969353709504353,0.0791622251905784,"0.0561759598290239"
"LogNormal","6",0.969908909241446,0.0766158779236345,"0.054337871017252"
"LogNormal","6",0.968004172371263,0.0832021627220587,"0.0591251384647378"
"LogNormal","6",0.97064516261883,0.0750872877856259,"0.0532133631570484"
"LogNormal","6",0.966834599999198,0.084816637250559,"0.0603453277739701"
"LogNormal","6",0.96639727618694,0.0879395327936352,"0.0625955185460723"
"LogNormal","6",0.969577290317596,0.0783514648126605,"0.0555877979354085"
"LogNormal","6",0.96787352357649,0.0839018305316168,"0.0596303846964457"
"LogNormal","6",0.968818779455662,0.0796306366375565,"0.0565395599595973"
"LogNormal","6",0.973457032683537,0.0684809942119954,"0.0483913852728022"
"LogNormal","6",0.96922344866371,0.0803517495328483,"0.0570277463743549"
"LogNormal","6",0.965926182233132,0.0876514008616501,"0.062420854285461"
"LogNormal","6",0.969515663828866,0.0775826744594663,"0.0550458650850749"
"LogNormal","6",0.971147012441628,0.0745143797031576,"0.0527800620905552"
"LogNormal","6",0.970173057141569,0.076425271412905,"0.0541879304734429"
"LogNormal","6",0.968171728571143,0.0828465820894594,"0.0588622669456536"
"LogNormal","6",0.973651414762664,0.068678518135237,"0.0485212746705916"
"LogNormal","6",0.96549163647082,0.0894583091335596,"0.0637363154952277"
"LogNormal","6",0.971152876472936,0.0747479152881064,"0.0529451604347089"
"LogNormal","6",0.969101438397103,0.0798859767232867,"0.056704313379484"
"LogNormal","6",0.968388540689482,0.0813262320607472,"0.0577691256616903"
"LogNormal","6",0.972837480241794,0.0696082244347529,"0.0492192562133811"
"LogNormal","6",0.970473569730787,0.0762063586768671,"0.0540159828982998"
"LogNormal","6",0.968340244243422,0.0817434079928799,"0.0580683576872332"
"LogNormal","6",0.968937169021634,0.0804812622258796,"0.0571365413599358"
"LogNormal","6",0.96958226051572,0.0765800476908441,"0.0543307570014662"
"LogNormal","6",0.97196658468456,0.0716912140437562,"0.0507375374821524"
"LogNormal","6",0.970769778281022,0.0748286130896996,"0.0530232364825864"
"LogNormal","6",0.969596099928793,0.0774721124554616,"0.054962859971754"
"LogNormal","6",0.969221716078763,0.0791603629002448,"0.0561822884314442"
"LogNormal","6",0.968339152462598,0.08132085225779,"0.0577682503876877"
"LogNormal","6",0.973423487203292,0.0684656060675719,"0.0483821786573033"
"LogNormal","6",0.969293614044253,0.08001536709455,"0.0567848960740931"
"LogNormal","6",0.97305261987857,0.0694861263428197,"0.0491220587412271"
"LogNormal","6",0.970531064834894,0.0750928014910048,"0.0532235269871246"
"LogNormal","6",0.971085046397036,0.0758552827356835,"0.0537332797493422"
"LogNormal","6",0.966875819612947,0.0858064043636212,"0.0610469244758747"
"LogNormal","6",0.970342170972564,0.0768535313518095,"0.0544820833534727"
"LogNormal","6",0.968216775091489,0.0821063980643083,"0.0583336541336941"
"LogNormal","6",0.972104970294904,0.0714847147268882,"0.05058419109745"
"LogNormal","6",0.968235024745725,0.0817538106648336,"0.0580820586458946"
"LogNormal","6",0.968958280591865,0.0803757080607302,"0.05706036141064"
"LogNormal","6",0.969886596792803,0.0785578511385718,"0.0557164480761849"
"LogNormal","6",0.970195452525967,0.0766040238857161,"0.0543134178546998"
"LogNormal","6",0.968929234258423,0.0791450695474304,"0.0561883902759619"
"LogNormal","6",0.970816749754013,0.0765414480379229,"0.054234319859622"
"LogNormal","6",0.972278810177888,0.0707847611743968,"0.0500799325195556"
"LogNormal","6",0.970773168294873,0.0749559213679753,"0.0531132611100671"
"LogNormal","6",0.973228553759883,0.0684124220895689,"0.048354278667027"
"LogNormal","6",0.97002765797692,0.0767149811406707,"0.0544014969323823"
"LogNormal","6",0.971684680150221,0.0720946525488384,"0.0510378630610329"
"LogNormal","6",0.97086028200192,0.0765229041533614,"0.0542187491629997"
"LogNormal","6",0.969308243711122,0.0791759039232187,"0.0561883020914626"
"LogNormal","6",0.970685764298788,0.0762078630124849,"0.054005240914492"
"LogNormal","6",0.968647997075103,0.0808279542407111,"0.0573998010199697"
"LogNormal","6",0.972888289903478,0.0696916846943852,"0.04927569651398"
"LogNormal","6",0.971955092237138,0.071054337831528,"0.0502873999866611"
"LogNormal","6",0.969231846598829,0.07959706862965,"0.0564916400447499"
"LogNormal","6",0.968702584877687,0.0801582444406534,"0.0569210002575908"
"LogNormal","6",0.973400617754836,0.0673977677612471,"0.0476286947550486"
"LogNormal","6",0.96927345115397,0.0789431965504393,"0.0560251689864368"
"LogNormal","6",0.968570915911192,0.0804483836514377,"0.0571347963279099"
"LogNormal","6",0.970589488409371,0.0750212913573919,"0.0531696420665382"
"LogNormal","6",0.971215724093765,0.0750716533288318,"0.0531710284046905"
"LogNormal","6",0.972775499796073,0.0702832241988072,"0.049699707989495"
"LogNormal","6",0.972372396371168,0.0699704240746384,"0.0494990278085852"
"LogNormal","6",0.973642008261241,0.0676150312453239,"0.047770384218853"
"LogNormal","6",0.968377418899651,0.0822910747602185,"0.0584551615933351"
"LogNormal","6",0.969831577905924,0.0785869051345997,"0.0557402163437954"
"LogNormal","6",0.971463843445377,0.0733016762562826,"0.0519041459659513"
"LogNormal","6",0.969561615130136,0.0776732747838451,"0.0551075352489265"
"LogNormal","6",0.968210830920138,0.082035684623535,"0.058283772588982"
"LogNormal","6",0.972245180948922,0.0709802519546782,"0.0502199784678798"
"LogNormal","6",0.96962847123281,0.07742698958078,"0.0549290135102463"
"LogNormal","6",0.97358144169423,0.0691287735153764,"0.0488428896266075"
"LogNormal","6",0.970269965248578,0.0770052162571844,"0.0545936764563359"
"LogNormal","6",0.968367288379585,0.0822968917565661,"0.0584599052438679"
"LogNormal","6",0.970399235415396,0.0772852609965135,"0.0547849181301752"
"LogNormal","6",0.967636008591975,0.0824606678690221,"0.0586205125417165"
"LogNormal","6",0.969816072415677,0.0773549543112229,"0.0548672939629169"
"LogNormal","6",0.966938664872568,0.083302241152059,"0.0592614868876917"
"LogNormal","6",0.972653394988295,0.0697886469757536,"0.0493561705532555"
"LogNormal","6",0.971400156359517,0.0736000735745593,"0.052118854768791"
"LogNormal","6",0.970765727092032,0.0750471264432915,"0.0531782960362861"
"LogNormal","6",0.971707360243716,0.0729505638470997,"0.051642581718371"
"LogLogistic","6",0.970139896720043,0.0768845080794604,"0.0545154071012672"
"LogLogistic","6",0.970557287398506,0.0756605168106019,"0.0536244577225466"
"LogLogistic","6",0.970185894219808,0.0765121809167456,"0.0542488342492322"
"LogLogistic","6",0.970290013288413,0.0760160576784583,"0.0538912883213087"
"LogLogistic","6",0.970822285773137,0.0751154673467659,"0.0532236214007629"
"LogLogistic","6",0.970968544060565,0.0741501427767558,"0.0525317194032975"
"LogLogistic","6",0.971527329570858,0.072276851154153,"0.0511751337445649"
"LogLogistic","6",0.968725650029901,0.0813832492069552,"0.0577895097947323"
"LogLogistic","6",0.972127414834944,0.0715259226229204,"0.05061218216674"
"LogLogistic","6",0.97238851442126,0.0707557925108616,"0.05005378963381"
"LogLogistic","6",0.972457137167756,0.0719097450182019,"0.0508665245444426"
"LogLogistic","6",0.973482873145577,0.0677873522721675,"0.0478999588737428"
"LogLogistic","6",0.969220771007493,0.0781429829733371,"0.0554602799723924"
"LogLogistic","6",0.968664392889555,0.0797651414677702,"0.0566440879877912"
"LogLogistic","6",0.972282792118985,0.0712224363757506,"0.0503893795877359"
"LogLogistic","6",0.975835682120439,0.0628191311103502,"0.0442822842662665"
"LogLogistic","6",0.968199347120986,0.0810200757944733,"0.0575628972177307"
"LogLogistic","6",0.969959558288689,0.0776433499228402,"0.0550637040610171"
"LogLogistic","6",0.971160613288507,0.0739654437876829,"0.0523905058074257"
"LogLogistic","6",0.969656517648217,0.078379414818171,"0.0556030840390322"
"LogLogistic","6",0.968224118796011,0.0809570308210724,"0.0575166336360522"
"LogLogistic","6",0.968829280633318,0.0799935542889186,"0.0567966241043503"
"LogLogistic","6",0.972711652257209,0.0706694530465157,"0.0499761039688948"
"LogLogistic","6",0.970077867714619,0.0768573190964405,"0.0544996132024513"
"LogLogistic","6",0.970366318599655,0.0769365220162979,"0.0545395588454758"
"LogLogistic","6",0.971001595980441,0.0748748516098222,"0.0530433342687928"
"LogLogistic","6",0.970440848618806,0.0754271095322015,"0.0534654444147011"
"LogLogistic","6",0.971692541004859,0.0716330752429341,"0.0507106890611562"
"LogLogistic","6",0.971105324733707,0.0749107771754263,"0.0530631163441915"
"LogLogistic","6",0.965906473153221,0.0879805158972053,"0.062656511681308"
"LogLogistic","6",0.969276898971733,0.0784851531808052,"0.0556999022199149"
"LogLogistic","6",0.969317210307062,0.0803930670591854,"0.0570515514013645"
"LogLogistic","6",0.971151124230242,0.0735185766787696,"0.0520744939215683"
"LogLogistic","6",0.968370374243618,0.0823393466951434,"0.0584898768807136"
"LogLogistic","6",0.970382080492984,0.0761615800594737,"0.0539893330004459"
"LogLogistic","6",0.970781224529948,0.0749897086112803,"0.0531367615527314"
"LogLogistic","6",0.971364663429059,0.0742325416394389,"0.052568648863319"
"LogLogistic","6",0.971547627565276,0.0731980491326676,"0.0518262989187499"
"LogLogistic","6",0.970331489088216,0.0766252351811592,"0.0543208403551207"
"LogLogistic","6",0.970954928712858,0.0742708616673396,"0.0526179806164113"
"LogLogistic","6",0.973841090447549,0.0673945730778028,"0.0476048954831332"
"LogLogistic","6",0.968191831358042,0.0808293162489404,"0.0574278127458165"
"LogLogistic","6",0.970274128492306,0.0770739375218221,"0.0546421626770575"
"LogLogistic","6",0.967448027507309,0.0830417418363787,"0.0590450631442101"
"LogLogistic","6",0.968487675103244,0.0824651470877855,"0.0585721444016851"
"LogLogistic","6",0.967579585714398,0.0827148408955636,"0.0588046306529635"
"LogLogistic","6",0.971949831521466,0.0735699322670767,"0.0520680474726891"
"LogLogistic","6",0.969290681176833,0.0794504981577979,"0.0563841933850133"
"LogLogistic","6",0.970902869178556,0.0752667921775979,"0.0533264173559465"
"LogLogistic","6",0.971211368699366,0.0742135502349131,"0.0525634951203511"
"LogLogistic","6",0.970985690930647,0.0753880354874809,"0.0534077621843179"
"LogLogistic","6",0.971014231502362,0.0747381223523042,"0.0529457826531115"
"LogLogistic","6",0.970913838567713,0.0742800180728393,"0.0526266946946614"
"LogLogistic","6",0.968036287272199,0.0825443429370134,"0.0586557324435231"
"LogLogistic","6",0.970999799838723,0.0740519265720839,"0.0524604493477598"
"LogLogistic","6",0.968465497814327,0.0804135767255883,"0.0571162927647015"
"LogLogistic","6",0.971665287477076,0.0727833545100511,"0.0515264431975453"
"LogLogistic","6",0.967724535625901,0.0843617086746572,"0.0599664583466382"
"LogLogistic","6",0.972579333776584,0.0706426112263015,"0.0499639185583005"
"LogLogistic","6",0.968506660164513,0.0811747545138597,"0.0576544929568468"
"LogLogistic","6",0.969358958614607,0.0779914789019675,"0.0553448624096293"
"LogLogistic","6",0.971230644160854,0.0743373774296269,"0.0526501537095121"
"LogLogistic","6",0.969069832270632,0.0792463466858263,"0.0562521285919599"
"LogLogistic","6",0.969637658881377,0.0781814145469369,"0.0554636995184237"
"LogLogistic","6",0.974639867582605,0.0649462921647308,"0.0458379276156475"
"LogLogistic","6",0.974002866861082,0.0658160435544759,"0.0464821621412779"
"LogLogistic","6",0.972141053232048,0.0709285369042146,"0.0501887642430461"
"LogLogistic","6",0.970030850043132,0.0770462410127939,"0.0546362260552957"
"LogLogistic","6",0.968943665326124,0.0809657906652138,"0.0574801401383733"
"LogLogistic","6",0.968033253242191,0.0808846240066319,"0.0574765218978008"
"LogLogistic","6",0.974043063290372,0.0671249912371567,"0.0474046417596825"
"LogLogistic","6",0.970415833220667,0.0763214658488967,"0.0541007908706002"
"LogLogistic","6",0.969753273950491,0.0776186231277235,"0.0550578774548516"
"LogLogistic","6",0.966601429138021,0.0871695485817622,"0.0620343375391839"
"LogLogistic","6",0.969305264645208,0.0795955113105441,"0.0564862560239558"
"LogLogistic","6",0.971272041468557,0.0749956492727152,"0.0531141170826697"
"LogLogistic","6",0.970135503775419,0.0768531464568574,"0.0544934167152529"
"LogLogistic","6",0.970172143767966,0.0767624424273582,"0.0544270466090619"
"LogLogistic","6",0.970194242999285,0.0754211411267053,"0.0534748026565821"
"LogLogistic","6",0.967556944888535,0.0834884303796088,"0.0593559891009336"
"LogLogistic","6",0.969350020920624,0.0790736208207271,"0.0561132969539933"
"LogLogistic","6",0.973071656394953,0.0696963105655238,"0.0492696810762627"
"LogLogistic","6",0.969871818116909,0.0781860557633996,"0.0554536005322874"
"LogLogistic","6",0.97273985972156,0.070149810550993,"0.0496071840509709"
"LogLogistic","6",0.968846992772571,0.0800115297049394,"0.0568083483491417"
"LogLogistic","6",0.970036472768125,0.077947496602691,"0.0552750180068875"
"LogLogistic","6",0.972556699881584,0.0705870663612003,"0.0499257948081193"
"LogLogistic","6",0.972671093222659,0.0707085781988162,"0.0500058576263913"
"LogLogistic","6",0.967447217595765,0.0848009101672257,"0.0602959328227577"
"LogLogistic","6",0.972765596181193,0.070315848832099,"0.0497232842222837"
"LogLogistic","6",0.971340055642798,0.0730119946281027,"0.051705613987751"
"LogLogistic","6",0.969959360285459,0.0774444344643312,"0.0549226468881856"
"LogLogistic","6",0.970064582678566,0.0772873148598103,"0.0548052742399281"
"LogLogistic","6",0.970923690231239,0.0740024104752889,"0.0524294803296712"
"LogLogistic","6",0.975211531786104,0.0632366348641544,"0.0446051195328412"
"LogLogistic","6",0.97206877020784,0.0715928878182917,"0.0506626234272911"
"LogLogistic","6",0.968073694586473,0.0828281022120317,"0.0588550965235259"
"LogLogistic","6",0.969492696230561,0.0789497368915131,"0.0560171397863192"
"LogLogistic","6",0.965976880436017,0.0874974908985574,"0.0623079771294761"
"LogLogistic","6",0.969580655038169,0.0790662072484507,"0.0560946896174981"
"LogLogistic","6",0.9701005847624,0.0761822586378031,"0.0540196620369522"
"LogLogistic","6",0.971748942245699,0.072763802922668,"0.051508167238663"
"LogLogistic","6",0.971304234265654,0.0744080923718486,"0.0526962454467883"
"LogLogistic","6",0.971450736754806,0.0727434350681501,"0.051509556203293"
"LogLogistic","6",0.969665153932503,0.0773827895556286,"0.0548955799019057"
"LogLogistic","6",0.971347071396874,0.0730494896177019,"0.0517317935328041"
"LogLogistic","6",0.971166123958763,0.0747663747109199,"0.0529575131503459"
"LogLogistic","6",0.973487680050877,0.0683290355478388,"0.0482824851782251"
"LogLogistic","6",0.970429402369879,0.0749627387492321,"0.053136908468852"
"LogLogistic","6",0.968366196543172,0.0811689360988299,"0.0576587227287844"
"LogLogistic","6",0.969007633567995,0.0809738433703872,"0.0574820621233769"
"LogLogistic","6",0.969740732429392,0.0779484493900757,"0.0552925510015725"
"LogLogistic","6",0.969257385055233,0.0788088512201103,"0.0559307525717037"
"LogLogistic","6",0.968404425485589,0.0809358841904217,"0.0574909036333247"
"LogLogistic","6",0.969394323385668,0.0798325070076219,"0.056649239023328"
"LogLogistic","6",0.970723064814944,0.0752359602594136,"0.05331444644434"
"LogLogistic","6",0.965169415561561,0.0906320449484086,"0.0645941239386061"
"LogLogistic","6",0.97259456100623,0.0707174015126251,"0.0500160329553481"
"LogLogistic","6",0.97141871940778,0.0740852911281909,"0.0524614522243709"
"LogLogistic","6",0.968886761932236,0.0806184364280966,"0.0572369038971585"
"LogLogistic","6",0.969418109003438,0.0789860928846795,"0.0560472473781708"
