{"directed": false, "graph": [], "nodes": [
    {
        "cost": "",
        "capacity": "",
        "demand": "",
        "y": 356.8833312988281,
        "x": 61.54998779296875,
        "type": "switch",
        "id": "A1"
    },
    {
        "cost": "",
        "capacity": "",
        "demand": "",
        "y": 93.88333129882812,
        "x": 71.54998779296875,
        "type": "switch",
        "id": "A0"
    },
    {
        "cost": "",
        "capacity": "",
        "demand": "",
        "y": 284.8833312988281,
        "x": 300.54998779296875,
        "type": "switch",
        "id": "A3"
    },
    {
        "cost": "",
        "capacity": "",
        "demand": "",
        "y": 439.8833312988281,
        "x": 247.54998779296875,
        "type": "switch",
        "id": "A2"
    },
    {
        "cost": "",
        "capacity": "",
        "demand": "",
        "y": 440.8833312988281,
        "x": 473.54998779296875,
        "type": "switch",
        "id": "A5"
    },
    {
        "cost": "",
        "capacity": "",
        "demand": "",
        "y": 285.8833312988281,
        "x": 492.54998779296875,
        "type": "switch",
        "id": "A4"
    },
    {
        "cost": "",
        "capacity": "",
        "demand": "",
        "y": 152.88333129882812,
        "x": 642.5499877929688,
        "type": "switch",
        "id": "A7"
    },
    {
        "cost": "",
        "capacity": "",
        "demand": "",
        "y": 369.8833312988281,
        "x": 734.5499877929688,
        "type": "switch",
        "id": "A6"
    },
    {
        "cost": "",
        "capacity": "",
        "demand": "",
        "y": 252.88333129882812,
        "x": 603.5499877929688,
        "type": "switch",
        "id": "A9"
    },
    {
        "cost": "",
        "capacity": "",
        "demand": "",
        "y": 83.88333129882812,
        "x": 470.54998779296875,
        "type": "switch",
        "id": "A8"
    }
], "links": [
    {
        "source": 0,
        "capacity": 10.0,
        "target": 2,
        "weight": 249.6096953245206
    },
    {
        "source": 2,
        "capacity": 10.0,
        "target": 9,
        "weight": 263.2508309578528
    },
    {
        "source": 6,
        "capacity": 10.0,
        "target": 8,
        "weight": 107.33592129385204
    },
    {
        "source": 6,
        "capacity": 10.0,
        "target": 9,
        "weight": 185.32404053441098
    },
    {
        "source": 6,
        "capacity": 11.0,
        "target": 7,
        "weight": 235.69683918118207
    },
    {
        "source": 7,
        "capacity": 1.0,
        "target": 8,
        "weight": 175.64168070250295
    }
], "multigraph": false}
