{"directed": false, "graph": [], "nodes": [
    {
        "layer": "W",
        "capacity": "",
        "cost": "",
        "demand": "",
        "y": 396,
        "x": 367.4333190917969,
        "type": "switch",
        "id": "W8"
    },
    {
        "layer": "W",
        "capacity": "",
        "cost": "",
        "demand": "",
        "y": 518,
        "x": 157.43331909179688,
        "type": "switch",
        "id": "W9"
    },
    {
        "layer": "W",
        "capacity": "",
        "cost": "",
        "demand": "",
        "y": 465,
        "x": 268.4333190917969,
        "type": "switch",
        "id": "W10"
    },
    {
        "layer": "W",
        "capacity": "",
        "cost": "",
        "demand": "",
        "y": 449,
        "x": 585.433349609375,
        "type": "switch",
        "id": "W7"
    },
    {
        "layer": "W",
        "capacity": "",
        "cost": "",
        "demand": "",
        "y": 539,
        "x": 580.433349609375,
        "type": "switch",
        "id": "W6"
    },
    {
        "layer": "W",
        "capacity": "",
        "cost": "",
        "demand": "",
        "y": 508,
        "x": 392.4333190917969,
        "type": "switch",
        "id": "W5"
    },
    {
        "layer": "W",
        "capacity": "",
        "cost": "",
        "demand": "",
        "y": 385,
        "x": 505.4333190917969,
        "type": "switch",
        "id": "W4"
    },
    {
        "layer": "W",
        "capacity": "",
        "cost": "",
        "demand": "",
        "y": 541,
        "x": 246.43331909179688,
        "type": "switch",
        "id": "W3"
    },
    {
        "layer": "W",
        "capacity": "",
        "cost": "",
        "demand": "",
        "y": 382,
        "x": 269,
        "type": "switch",
        "id": "W2"
    },
    {
        "layer": "W",
        "capacity": "",
        "cost": "",
        "demand": "",
        "y": 463,
        "x": 89.43331909179688,
        "type": "switch",
        "id": "W1"
    },
    {
        "layer": "E",
        "capacity": "",
        "cost": "",
        "demand": "",
        "y": 251,
        "x": 404.4333190917969,
        "type": "switch",
        "id": "E5"
    },
    {
        "layer": "E",
        "capacity": "",
        "cost": "",
        "demand": "",
        "y": 110,
        "x": 545.433349609375,
        "type": "switch",
        "id": "E4"
    },
    {
        "layer": "E",
        "capacity": "",
        "cost": "",
        "demand": "",
        "y": 300,
        "x": 584.433349609375,
        "type": "switch",
        "id": "E6"
    },
    {
        "layer": "E",
        "capacity": "",
        "cost": "",
        "demand": "",
        "y": 123.6595230102539,
        "x": 68.83653259277344,
        "type": "switch",
        "id": "E1"
    },
    {
        "layer": "E",
        "capacity": "",
        "cost": "",
        "demand": "",
        "y": 308,
        "x": 216,
        "type": "switch",
        "id": "E3"
    },
    {
        "layer": "E",
        "capacity": "",
        "cost": "",
        "demand": "",
        "y": 162.50196838378906,
        "x": 298.5135803222656,
        "type": "switch",
        "id": "E2"
    }
], "links": [
    {
        "source": 0,
        "layer": "W",
        "capacity": 40,
        "target": 5,
        "weight": 114.75626344561765
    },
    {
        "source": 0,
        "layer": "W",
        "capacity": 40,
        "target": 6,
        "weight": 138.43771162512041
    },
    {
        "source": 0,
        "layer": "W",
        "capacity": 40,
        "target": 8,
        "weight": 99.42393226697234
    },
    {
        "source": 0,
        "layer": "W",
        "capacity": 40,
        "target": 2,
        "weight": 120.6731121667126
    },
    {
        "source": 1,
        "layer": "W",
        "capacity": 40,
        "target": 7,
        "weight": 91.92388155425118
    },
    {
        "source": 1,
        "layer": "W",
        "capacity": 40,
        "target": 8,
        "weight": 175.90657829903012
    },
    {
        "source": 1,
        "layer": "W",
        "capacity": 40,
        "target": 9,
        "weight": 87.45856161634491
    },
    {
        "source": 2,
        "layer": "W",
        "capacity": 40,
        "target": 7,
        "weight": 79.12016177940993
    },
    {
        "source": 2,
        "layer": "W",
        "capacity": 40,
        "target": 8,
        "weight": 83.00193447897297
    },
    {
        "source": 3,
        "layer": "W",
        "capacity": 40,
        "target": 4,
        "weight": 90.13878188659973
    },
    {
        "source": 3,
        "layer": "W",
        "capacity": 40,
        "target": 6,
        "weight": 102.45001162915226
    },
    {
        "source": 4,
        "layer": "W",
        "capacity": 40,
        "target": 5,
        "weight": 190.53874008875545
    },
    {
        "source": 4,
        "capacity": 13,
        "adaptation": true,
        "weight": 239.0334704596827,
        "target": 12
    },
    {
        "source": 5,
        "capacity": 13,
        "adaptation": true,
        "weight": 257.2800031094527,
        "target": 10
    },
    {
        "source": 5,
        "layer": "W",
        "capacity": 40,
        "target": 6,
        "weight": 167.0269439342048
    },
    {
        "source": 5,
        "layer": "W",
        "capacity": 40,
        "target": 7,
        "weight": 149.68299836654796
    },
    {
        "source": 6,
        "capacity": 13,
        "adaptation": true,
        "weight": 277.8938690245022,
        "target": 11
    },
    {
        "source": 7,
        "capacity": 13,
        "adaptation": true,
        "weight": 234.9791201595221,
        "target": 14
    },
    {
        "source": 8,
        "capacity": 13,
        "adaptation": true,
        "weight": 221.47333317316097,
        "target": 15
    },
    {
        "source": 8,
        "layer": "W",
        "capacity": 40,
        "target": 9,
        "weight": 196.99033705333986
    },
    {
        "source": 9,
        "capacity": 13,
        "adaptation": true,
        "weight": 339.96497898712266,
        "target": 13
    },
    {
        "source": 10,
        "layer": "E",
        "capacity": 1,
        "target": 11,
        "weight": 1.0
    },
    {
        "source": 10,
        "layer": "E",
        "capacity": 10,
        "target": 12,
        "weight": 1.0
    },
    {
        "source": 10,
        "layer": "E",
        "capacity": 10,
        "target": 14,
        "weight": 1.0
    },
    {
        "source": 10,
        "layer": "E",
        "capacity": 10,
        "target": 15,
        "weight": 1.0
    },
    {
        "source": 11,
        "layer": "E",
        "capacity": 1,
        "target": 13,
        "weight": 1.0
    },
    {
        "source": 11,
        "layer": "E",
        "capacity": 10,
        "target": 12,
        "weight": 1.0
    },
    {
        "source": 11,
        "layer": "E",
        "capacity": 10,
        "target": 15,
        "weight": 1.0
    },
    {
        "source": 13,
        "layer": "E",
        "capacity": 10,
        "target": 14,
        "weight": 1.0
    },
    {
        "source": 13,
        "layer": "E",
        "capacity": 10,
        "target": 15,
        "weight": 1.0
    },
    {
        "source": 14,
        "layer": "E",
        "capacity": 1,
        "target": 15,
        "weight": 1.0
    }
], "multigraph": false}