[
    {
        "load": 6.39384,
        "ratio": 1.0000002857988401,
        "cost": 1.0,
        "nodeList": ["E6", "E5"]
    },
    {
        "load": 23.7273,
        "ratio": 1.0000018488538422,
        "cost": 2.0,
        "nodeList": ["E1", "E3", "E5"]
    },
    {
        "load": 12.7158,
        "ratio": 0.999998311476355,
        "cost": 1.0,
        "nodeList": ["E4", "E2"]
    },
    {
        "load": 22.559,
        "ratio": 0.9999990330669372,
        "cost": 1.0,
        "nodeList": ["E4", "E1"]
    },
    {
        "load": 16.2758,
        "ratio": 1.0000021327888788,
        "cost": 2.0,
        "nodeList": ["E6", "E5", "E2"]
    },
    {
        "load": 24.7597,
        "ratio": 1.0000009799280507,
        "cost": 2.0,
        "nodeList": ["E3", "E5", "E4"]
    },
    {
        "load": 14.3972,
        "ratio": 0.9999981769577724,
        "cost": 1.0,
        "nodeList": ["E3", "E1"]
    },
    {
        "load": 18.2065,
        "ratio": 1.000002060051643,
        "cost": 3.0,
        "nodeList": ["E1", "E3", "E5", "E6"]
    },
    {
        "load": 11.4953,
        "ratio": 0.9999959666069251,
        "cost": 2.0,
        "nodeList": ["E6", "E5", "E3"]
    },
    {
        "load": 15.2549,
        "ratio": 0.9999982976407871,
        "cost": 1.0,
        "nodeList": ["E1", "E2"]
    },
    {
        "load": 56.331,
        "ratio": 1.0,
        "cost": 179.3824431705961,
        "nodeList": ["W1", "W9", "W3"]
    },
    {
        "load": 52.37144,
        "ratio": 1.0,
        "cost": 190.53874008875545,
        "nodeList": ["W5", "W6"]
    },
    {
        "load": 78.1888,
        "ratio": 1.0,
        "cost": 149.68299836654796,
        "nodeList": ["W5", "W3"]
    },
    {
        "load": 12.7158,
        "ratio": 1.0,
        "cost": 237.86164389209276,
        "nodeList": ["W4", "W8", "W2"]
    },
    {
        "load": 22.559,
        "ratio": 1.0,
        "cost": 434.8519809454326,
        "nodeList": ["W4", "W8", "W2", "W1"]
    },
    {
        "load": 16.2758,
        "ratio": 1.0,
        "cost": 214.18019571258998,
        "nodeList": ["W5", "W8", "W2"]
    },
    {
        "load": 15.2549,
        "ratio": 1.0,
        "cost": 196.99033705333986,
        "nodeList": ["W1", "W2"]
    },
    {
        "load": 24.7597,
        "ratio": 1.0,
        "cost": 167.0269439342048,
        "nodeList": ["W5", "W4"]
    }
]
