[
    {
        "source": "N1",
        "target": "N6",
        "paths": [
            ["N1", "N0", "N6"],
            ["N1", "N2", "N3", "N6"],
            ["N1", "N0", "N5", "N6"]
        ]
    },
    {
        "source": "N0",
        "target": "N3",
        "paths": [
            ["N0", "N6", "N3"],
            ["N0", "N1", "N2", "N3"],
            ["N0", "N5", "N4", "N3"]
        ]
    },
    {
        "source": "N2",
        "target": "N3",
        "paths": [
            ["N2", "N3"],
            ["N2", "N1", "N0", "N6", "N3"],
            ["N2", "N1", "N0", "N5", "N4", "N3"]
        ]
    },
    {
        "source": "N0",
        "target": "N2",
        "paths": [
            ["N0", "N1", "N2"],
            ["N0", "N6", "N3", "N2"],
            ["N0", "N5", "N4", "N3", "N2"]
        ]
    },
    {
        "source": "N3",
        "target": "N5",
        "paths": [
            ["N3", "N4", "N5"],
            ["N3", "N6", "N5"],
            ["N3", "N6", "N0", "N5"]
        ]
    }
]